<?xml version="1.0" encoding="UTF-8" standalone="no"?>
<!-- Created with Inkscape (http://www.inkscape.org/) -->

<svg
   xmlns:dc="http://purl.org/dc/elements/1.1/"
   xmlns:cc="http://creativecommons.org/ns#"
   xmlns:rdf="http://www.w3.org/1999/02/22-rdf-syntax-ns#"
   xmlns:svg="http://www.w3.org/2000/svg"
   xmlns="http://www.w3.org/2000/svg"
   xmlns:sodipodi="http://sodipodi.sourceforge.net/DTD/sodipodi-0.dtd"
   xmlns:inkscape="http://www.inkscape.org/namespaces/inkscape"
   width="210mm"
   height="297mm"
   viewBox="0 0 744.09448819 1052.3622047"
   id="svg2"
   version="1.1"
   inkscape:version="0.91 r13725"
   sodipodi:docname="conc-left-leaning.svg"
   inkscape:export-filename="C:\cygwin\home\axel22\workspaces\scala\progfun-slides\images\conc-left-leaning.png"
   inkscape:export-xdpi="55.77"
   inkscape:export-ydpi="55.77">
  <defs
     id="defs4" />
  <sodipodi:namedview
     id="base"
     pagecolor="#ffffff"
     bordercolor="#666666"
     borderopacity="1.0"
     inkscape:pageopacity="0.0"
     inkscape:pageshadow="2"
     inkscape:zoom="0.35355339"
     inkscape:cx="1224.5278"
     inkscape:cy="280.34311"
     inkscape:document-units="px"
     inkscape:current-layer="layer1"
     showgrid="false"
     inkscape:window-width="1600"
     inkscape:window-height="877"
     inkscape:window-x="-4"
     inkscape:window-y="-4"
     inkscape:window-maximized="1" />
  <metadata
     id="metadata7">
    <rdf:RDF>
      <cc:Work
         rdf:about="">
        <dc:format>image/svg+xml</dc:format>
        <dc:type
           rdf:resource="http://purl.org/dc/dcmitype/StillImage" />
        <dc:title />
      </cc:Work>
    </rdf:RDF>
  </metadata>
  <g
     inkscape:label="Layer 1"
     inkscape:groupmode="layer"
     id="layer1">
    <rect
       transform="matrix(0.70710678,-0.70710678,0.70710678,0.70710678,0,0)"
       y="81.875366"
       x="-449.68457"
       height="76"
       width="76"
       id="rect4436"
       style="fill:none;fill-opacity:1;stroke:#000000;stroke-width:5;stroke-miterlimit:4;stroke-dasharray:none;stroke-dashoffset:0;stroke-opacity:1" />
    <rect
       style="fill:none;fill-opacity:1;stroke:#000000;stroke-width:5;stroke-miterlimit:4;stroke-dasharray:none;stroke-dashoffset:0;stroke-opacity:1"
       id="rect4438"
       width="76"
       height="76"
       x="-165.44202"
       y="375.63281"
       transform="matrix(0.70710678,-0.70710678,0.70710678,0.70710678,0,0)" />
    <path
       style="fill:none;fill-rule:evenodd;stroke:#000000;stroke-width:5;stroke-linecap:butt;stroke-linejoin:miter;stroke-miterlimit:4;stroke-dasharray:none;stroke-opacity:1"
       d="m -227.78715,410.36221 -134.00001,317.99999 318.000003,0 -144.000003,-315.99999"
       id="path4440"
       inkscape:connector-curvature="0" />
    <path
       inkscape:connector-curvature="0"
       id="path4442"
       d="M 182.21284,412.36221 48.212843,730.3622 l 317.999997,0 -144,-315.99999"
       style="fill:none;fill-rule:evenodd;stroke:#000000;stroke-width:5;stroke-linecap:butt;stroke-linejoin:miter;stroke-miterlimit:4;stroke-dasharray:none;stroke-opacity:1" />
    <text
       xml:space="preserve"
       style="font-style:normal;font-weight:normal;font-size:53.60011292px;line-height:125%;font-family:sans-serif;letter-spacing:0px;word-spacing:0px;fill:#000000;fill-opacity:1;stroke:none;stroke-width:1px;stroke-linecap:butt;stroke-linejoin:miter;stroke-opacity:1"
       x="-248.49254"
       y="295.56558"
       id="text4452"
       sodipodi:linespacing="125%"
       transform="scale(0.97752158,1.0229953)"><tspan
         sodipodi:role="line"
         id="tspan4454"
         x="-248.49254"
         y="295.56558">d-1</tspan></text>
    <text
       sodipodi:linespacing="125%"
       id="text4456"
       y="294.15521"
       x="175.99542"
       style="font-style:normal;font-weight:normal;font-size:52.43187332px;line-height:125%;font-family:sans-serif;letter-spacing:0px;word-spacing:0px;fill:#000000;fill-opacity:1;stroke:none;stroke-width:1px;stroke-linecap:butt;stroke-linejoin:miter;stroke-opacity:1"
       xml:space="preserve"
       transform="scale(0.97285705,1.0279002)"><tspan
         y="294.15521"
         x="175.99542"
         id="tspan4458"
         sodipodi:role="line">d-2</tspan></text>
    <rect
       style="fill:none;fill-opacity:1;stroke:#000000;stroke-width:5;stroke-miterlimit:4;stroke-dasharray:none;stroke-dashoffset:0;stroke-opacity:1"
       id="rect4470"
       width="76"
       height="76"
       x="-236.57068"
       y="153.56799"
       transform="matrix(0.70710678,-0.70710678,0.70710678,0.70710678,0,0)" />
    <path
       style="fill:none;fill-rule:evenodd;stroke:#000000;stroke-width:5;stroke-linecap:butt;stroke-linejoin:miter;stroke-miterlimit:4;stroke-dasharray:none;stroke-dashoffset:0;stroke-opacity:1"
       d="M 20.619243,301.83132 177.34344,357.74785"
       id="path4472"
       inkscape:connector-curvature="0"
       sodipodi:nodetypes="cc" />
    <path
       sodipodi:nodetypes="cc"
       inkscape:connector-curvature="0"
       id="path4474"
       d="M -29.630757,304.08132 -173.90656,349.99785"
       style="fill:none;fill-rule:evenodd;stroke:#000000;stroke-width:5;stroke-linecap:butt;stroke-linejoin:miter;stroke-miterlimit:4;stroke-dasharray:none;stroke-dashoffset:0;stroke-opacity:1" />
    <text
       sodipodi:linespacing="125%"
       id="text4476"
       y="204.63158"
       x="-19.087704"
       style="font-style:normal;font-weight:normal;font-size:53.07033157px;line-height:125%;font-family:sans-serif;letter-spacing:0px;word-spacing:0px;fill:#000000;fill-opacity:1;stroke:none;stroke-width:1px;stroke-linecap:butt;stroke-linejoin:miter;stroke-opacity:1"
       xml:space="preserve"
       transform="scale(0.99161364,1.0084573)"><tspan
         y="204.63158"
         x="-19.087704"
         id="tspan4478"
         sodipodi:role="line">d</tspan></text>
    <rect
       transform="matrix(0.70710678,-0.70710678,0.70710678,0.70710678,0,0)"
       y="710.57898"
       x="169.50417"
       height="76"
       width="76"
       id="rect4480"
       style="fill:none;fill-opacity:1;stroke:#000000;stroke-width:5;stroke-miterlimit:4;stroke-dasharray:none;stroke-dashoffset:0;stroke-opacity:1" />
    <path
       style="fill:none;fill-rule:evenodd;stroke:#000000;stroke-width:5;stroke-linecap:butt;stroke-linejoin:miter;stroke-miterlimit:4;stroke-dasharray:none;stroke-opacity:1"
       d="m 655.89822,412.36221 -133.99996,317.99999 318,0 -144.00004,-315.99999"
       id="path4482"
       inkscape:connector-curvature="0" />
    <text
       xml:space="preserve"
       style="font-style:normal;font-weight:normal;font-size:54.6017952px;line-height:125%;font-family:sans-serif;letter-spacing:0px;word-spacing:0px;fill:#000000;fill-opacity:1;stroke:none;stroke-width:1px;stroke-linecap:butt;stroke-linejoin:miter;stroke-opacity:1"
       x="571.02319"
       y="306.32898"
       id="text4484"
       sodipodi:linespacing="125%"
       transform="scale(1.0131192,0.98705066)"><tspan
         sodipodi:role="line"
         id="tspan4486"
         x="571.02319"
         y="306.32898">e &lt;= d-2</tspan></text>
    <text
       xml:space="preserve"
       style="font-style:normal;font-weight:normal;font-size:60.38670349px;line-height:125%;font-family:sans-serif;letter-spacing:0px;word-spacing:0px;fill:#000000;fill-opacity:1;stroke:none;stroke-width:1px;stroke-linecap:butt;stroke-linejoin:miter;stroke-opacity:1"
       x="-301.75351"
       y="702.54803"
       id="text4488"
       sodipodi:linespacing="125%"><tspan
         sodipodi:role="line"
         id="tspan4490"
         x="-301.75351"
         y="702.54803">xs.left</tspan></text>
    <text
       sodipodi:linespacing="125%"
       id="text4492"
       y="702.54803"
       x="92.912575"
       style="font-style:normal;font-weight:normal;font-size:60.38670349px;line-height:125%;font-family:sans-serif;letter-spacing:0px;word-spacing:0px;fill:#000000;fill-opacity:1;stroke:none;stroke-width:1px;stroke-linecap:butt;stroke-linejoin:miter;stroke-opacity:1"
       xml:space="preserve"><tspan
         y="702.54803"
         x="92.912575"
         id="tspan4494"
         sodipodi:role="line">xs.right</tspan></text>
    <text
       xml:space="preserve"
       style="font-style:normal;font-weight:normal;font-size:60.38670349px;line-height:125%;font-family:sans-serif;letter-spacing:0px;word-spacing:0px;fill:#000000;fill-opacity:1;stroke:none;stroke-width:1px;stroke-linecap:butt;stroke-linejoin:miter;stroke-opacity:1"
       x="648.62238"
       y="702.54803"
       id="text4496"
       sodipodi:linespacing="125%"><tspan
         sodipodi:role="line"
         x="648.62238"
         y="702.54803"
         id="tspan4500">ys</tspan></text>
    <rect
       style="fill:none;fill-opacity:1;stroke:#000000;stroke-width:5;stroke-miterlimit:4;stroke-dasharray:none;stroke-dashoffset:0;stroke-opacity:1"
       id="rect4535"
       width="76"
       height="76"
       x="604.65131"
       y="1136.2113"
       transform="matrix(0.70710678,-0.70710678,0.70710678,0.70710678,0,0)" />
    <rect
       transform="matrix(0.70710678,-0.70710678,0.70710678,0.70710678,0,0)"
       y="1579.8752"
       x="928.49188"
       height="76"
       width="76"
       id="rect4537"
       style="fill:none;fill-opacity:1;stroke:#000000;stroke-width:5;stroke-miterlimit:4;stroke-dasharray:none;stroke-dashoffset:0;stroke-opacity:1" />
    <path
       inkscape:connector-curvature="0"
       id="path4539"
       d="m 1263.2691,410.36221 -134,317.99999 318,0 -144,-315.99999"
       style="fill:none;fill-rule:evenodd;stroke:#000000;stroke-width:5;stroke-linecap:butt;stroke-linejoin:miter;stroke-miterlimit:4;stroke-dasharray:none;stroke-opacity:1" />
    <path
       style="fill:none;fill-rule:evenodd;stroke:#000000;stroke-width:5;stroke-linecap:butt;stroke-linejoin:miter;stroke-miterlimit:4;stroke-dasharray:none;stroke-opacity:1"
       d="m 1807.2691,490.36221 -134,317.99999 318,0 -144,-315.99999"
       id="path4541"
       inkscape:connector-curvature="0" />
    <text
       sodipodi:linespacing="125%"
       id="text4543"
       y="295.56558"
       x="1276.8511"
       style="font-style:normal;font-weight:normal;font-size:53.60011292px;line-height:125%;font-family:sans-serif;letter-spacing:0px;word-spacing:0px;fill:#000000;fill-opacity:1;stroke:none;stroke-width:1px;stroke-linecap:butt;stroke-linejoin:miter;stroke-opacity:1"
       xml:space="preserve"
       transform="scale(0.97752158,1.0229953)"><tspan
         y="295.56558"
         x="1276.8511"
         id="tspan4545"
         sodipodi:role="line">d-1</tspan></text>
    <text
       xml:space="preserve"
       style="font-style:normal;font-weight:normal;font-size:52.43187332px;line-height:125%;font-family:sans-serif;letter-spacing:0px;word-spacing:0px;fill:#000000;fill-opacity:1;stroke:none;stroke-width:1px;stroke-linecap:butt;stroke-linejoin:miter;stroke-opacity:1"
       x="1846.3912"
       y="370.03806"
       id="text4547"
       sodipodi:linespacing="125%"
       transform="scale(0.97285705,1.0279002)"><tspan
         sodipodi:role="line"
         id="tspan4549"
         x="1846.3912"
         y="370.03806">d-2</tspan></text>
    <rect
       style="fill:none;fill-opacity:1;stroke:#000000;stroke-width:5;stroke-miterlimit:4;stroke-dasharray:none;stroke-dashoffset:0;stroke-opacity:1"
       id="rect4561"
       width="76"
       height="76"
       x="1260.6096"
       y="1911.993"
       transform="matrix(0.70710678,-0.70710678,0.70710678,0.70710678,0,0)" />
    <path
       inkscape:connector-curvature="0"
       id="path4563"
       d="m 2276.9545,490.36221 -134,317.99999 318,0 -144,-315.99999"
       style="fill:none;fill-rule:evenodd;stroke:#000000;stroke-width:5;stroke-linecap:butt;stroke-linejoin:miter;stroke-miterlimit:4;stroke-dasharray:none;stroke-opacity:1" />
    <text
       sodipodi:linespacing="125%"
       id="text4565"
       y="363.3136"
       x="2324.3062"
       style="font-style:normal;font-weight:normal;font-size:51.47906494px;line-height:125%;font-family:sans-serif;letter-spacing:0px;word-spacing:0px;fill:#000000;fill-opacity:1;stroke:none;stroke-width:1px;stroke-linecap:butt;stroke-linejoin:miter;stroke-opacity:1"
       xml:space="preserve"
       transform="scale(0.95517799,1.0469253)"><tspan
         y="363.3136"
         x="2324.3062"
         id="tspan4567"
         sodipodi:role="line">e &lt;= d-2</tspan></text>
    <text
       sodipodi:linespacing="125%"
       id="text4569"
       y="702.54803"
       x="1189.3027"
       style="font-style:normal;font-weight:normal;font-size:60.38670349px;line-height:125%;font-family:sans-serif;letter-spacing:0px;word-spacing:0px;fill:#000000;fill-opacity:1;stroke:none;stroke-width:1px;stroke-linecap:butt;stroke-linejoin:miter;stroke-opacity:1"
       xml:space="preserve"><tspan
         y="702.54803"
         x="1189.3027"
         id="tspan4571"
         sodipodi:role="line">xs.left</tspan></text>
    <text
       xml:space="preserve"
       style="font-style:normal;font-weight:normal;font-size:60.38670349px;line-height:125%;font-family:sans-serif;letter-spacing:0px;word-spacing:0px;fill:#000000;fill-opacity:1;stroke:none;stroke-width:1px;stroke-linecap:butt;stroke-linejoin:miter;stroke-opacity:1"
       x="1717.9689"
       y="780.54803"
       id="text4573"
       sodipodi:linespacing="125%"><tspan
         sodipodi:role="line"
         id="tspan4575"
         x="1717.9689"
         y="780.54803">xs.right</tspan></text>
    <text
       sodipodi:linespacing="125%"
       id="text4577"
       y="780.54803"
       x="2269.6787"
       style="font-style:normal;font-weight:normal;font-size:60.38670349px;line-height:125%;font-family:sans-serif;letter-spacing:0px;word-spacing:0px;fill:#000000;fill-opacity:1;stroke:none;stroke-width:1px;stroke-linecap:butt;stroke-linejoin:miter;stroke-opacity:1"
       xml:space="preserve"><tspan
         id="tspan4579"
         y="780.54803"
         x="2269.6787"
         sodipodi:role="line">ys</tspan></text>
    <text
       xml:space="preserve"
       style="font-style:normal;font-weight:normal;font-size:131.88363647px;line-height:125%;font-family:sans-serif;letter-spacing:0px;word-spacing:0px;fill:#000000;fill-opacity:1;stroke:none;stroke-width:1px;stroke-linecap:butt;stroke-linejoin:miter;stroke-opacity:1"
       x="877.00806"
       y="571.81683"
       id="text4581"
       sodipodi:linespacing="125%"><tspan
         sodipodi:role="line"
         id="tspan4583"
         x="877.00806"
         y="571.81683">==</tspan></text>
    <text
       xml:space="preserve"
       style="font-style:normal;font-weight:normal;font-size:133.4460907px;line-height:125%;font-family:sans-serif;letter-spacing:0px;word-spacing:0px;fill:#000000;fill-opacity:1;stroke:none;stroke-width:1px;stroke-linecap:butt;stroke-linejoin:miter;stroke-opacity:1"
       x="541.74731"
       y="420.89609"
       id="text4585"
       sodipodi:linespacing="125%"
       transform="scale(0.70385544,1.4207463)"><tspan
         sodipodi:role="line"
         id="tspan4587"
         x="541.74731"
         y="420.89609">&lt;&gt;</tspan></text>
    <text
       transform="scale(0.70385544,1.4207463)"
       sodipodi:linespacing="125%"
       id="text4589"
       y="319.54089"
       x="2803.5752"
       style="font-style:normal;font-weight:normal;font-size:133.4460907px;line-height:125%;font-family:sans-serif;letter-spacing:0px;word-spacing:0px;fill:#000000;fill-opacity:1;stroke:none;stroke-width:1px;stroke-linecap:butt;stroke-linejoin:miter;stroke-opacity:1"
       xml:space="preserve"><tspan
         y="319.54089"
         x="2803.5752"
         id="tspan4591"
         sodipodi:role="line">&lt;&gt;</tspan></text>
    <rect
       transform="matrix(0.70710678,-0.70710678,0.70710678,0.70710678,0,0)"
       y="1369.7916"
       x="1205.9271"
       height="76"
       width="76"
       id="rect4593"
       style="fill:none;fill-opacity:1;stroke:#000000;stroke-width:5;stroke-miterlimit:4;stroke-dasharray:none;stroke-dashoffset:0;stroke-opacity:1" />
    <path
       sodipodi:nodetypes="cc"
       inkscape:connector-curvature="0"
       id="path4595"
       d="m 1900.6192,141.83132 140.7242,182.91653"
       style="fill:none;fill-rule:evenodd;stroke:#000000;stroke-width:5;stroke-linecap:butt;stroke-linejoin:miter;stroke-miterlimit:4;stroke-dasharray:none;stroke-dashoffset:0;stroke-opacity:1" />
    <path
       style="fill:none;fill-rule:evenodd;stroke:#000000;stroke-width:5;stroke-linecap:butt;stroke-linejoin:miter;stroke-miterlimit:4;stroke-dasharray:none;stroke-dashoffset:0;stroke-opacity:1"
       d="M 1850.3692,144.08132 1308.0934,345.99785"
       id="path4597"
       inkscape:connector-curvature="0"
       sodipodi:nodetypes="cc" />
    <text
       xml:space="preserve"
       style="font-style:normal;font-weight:normal;font-size:53.07033157px;line-height:125%;font-family:sans-serif;letter-spacing:0px;word-spacing:0px;fill:#000000;fill-opacity:1;stroke:none;stroke-width:1px;stroke-linecap:butt;stroke-linejoin:miter;stroke-opacity:1"
       x="1876.812"
       y="45.973404"
       id="text4599"
       sodipodi:linespacing="125%"
       transform="scale(0.99161364,1.0084573)"><tspan
         sodipodi:role="line"
         id="tspan4601"
         x="1876.812"
         y="45.973404">d</tspan></text>
    <text
       xml:space="preserve"
       style="font-style:normal;font-weight:normal;font-size:55.3105278px;line-height:125%;font-family:sans-serif;letter-spacing:0px;word-spacing:0px;fill:#000000;fill-opacity:1;stroke:none;stroke-width:1px;stroke-linecap:butt;stroke-linejoin:miter;stroke-opacity:1"
       x="1992.1665"
       y="274.73584"
       id="text4603"
       sodipodi:linespacing="125%"
       transform="scale(1.0087149,0.99136036)"><tspan
         sodipodi:role="line"
         id="tspan4605"
         x="1992.1665"
         y="274.73584">e' &lt;= d-1</tspan></text>
  </g>
</svg>
