<?xml version="1.0" encoding="UTF-8" standalone="no"?>
<!-- Created with Inkscape (http://www.inkscape.org/) -->

<svg
   xmlns:dc="http://purl.org/dc/elements/1.1/"
   xmlns:cc="http://creativecommons.org/ns#"
   xmlns:rdf="http://www.w3.org/1999/02/22-rdf-syntax-ns#"
   xmlns:svg="http://www.w3.org/2000/svg"
   xmlns="http://www.w3.org/2000/svg"
   xmlns:xlink="http://www.w3.org/1999/xlink"
   xmlns:sodipodi="http://sodipodi.sourceforge.net/DTD/sodipodi-0.dtd"
   xmlns:inkscape="http://www.inkscape.org/namespaces/inkscape"
   width="210mm"
   height="297mm"
   viewBox="0 0 744.09448819 1052.3622047"
   id="svg2"
   version="1.1"
   inkscape:version="0.91 r13725"
   sodipodi:docname="factory.svg"
   inkscape:export-filename="C:\cygwin\home\axel22\workspaces\scala\progfun-slides\images\factory.png"
   inkscape:export-xdpi="77.739998"
   inkscape:export-ydpi="77.739998">
  <defs
     id="defs4" />
  <sodipodi:namedview
     id="base"
     pagecolor="#ffffff"
     bordercolor="#666666"
     borderopacity="1.0"
     inkscape:pageopacity="0.0"
     inkscape:pageshadow="2"
     inkscape:zoom="0.49497475"
     inkscape:cx="330.0673"
     inkscape:cy="519.63368"
     inkscape:document-units="px"
     inkscape:current-layer="layer1"
     showgrid="false"
     inkscape:window-width="1600"
     inkscape:window-height="877"
     inkscape:window-x="-4"
     inkscape:window-y="-4"
     inkscape:window-maximized="1" />
  <metadata
     id="metadata7">
    <rdf:RDF>
      <cc:Work
         rdf:about="">
        <dc:format>image/svg+xml</dc:format>
        <dc:type
           rdf:resource="http://purl.org/dc/dcmitype/StillImage" />
        <dc:title />
      </cc:Work>
    </rdf:RDF>
  </metadata>
  <g
     inkscape:label="Layer 1"
     inkscape:groupmode="layer"
     id="layer1">
    <image
       width="118.03235"
       height="330.12173"
       preserveAspectRatio="none"
       style="image-rendering:optimizeSpeed"
       xlink:href="data:image/png;base64,iVBORw0KGgoAAAANSUhEUgAAAQAAAALMCAYAAAALsGw0AAAABHNCSVQICAgIfAhkiAAAGrxJREFU eJzt3XmwnWV9wPHvvQk35CYYE5ZAWRMEpSrKDi5oEUVEUdSZVltKXUY7dmpb21o705nWdrRqbauA U3Q62mIVau1oW6QgqRUroEDYZRMIARIWIQshN8vNvekfvxMSQpb7nu153/P7fmaecQbD4TlvzvM9 7/ue97xnCA2aGcA84ABgIXB4638XtP75bGDWNgNg7TbjGWAFsAR4YJuxvPXPN/TpeagPhkpPQB2b DryQWOjHAccDxwD7A6OtMb3Nx94EjLXGY8AtwI3AYuA+YFXrz6ihDEAzDQF7AycCZwCnEO/yc2h/ sU/VJmA1sYdwHXAlcD3wFDDZ4/+2uswANMso8HLgzcTCfxmwV9EZwRrgTuAKIga3EYcSkrpkFrHo LwGeIN5pN9dsTAK/AL4FnEX5MEmNtxfwVuDbwErKL/KpjtXAd4FziMMSSRXsAZxKLPzVlF/Q7Y41 wH8CpwMjXd1C0oA6DPg08bFb6QXcrfEE8HfAEXjeSdqhUeC9wA3ABOUXbbfHJHGC8IN4fkB6jgOB LwJPU36h9nqsBf6R+NhSSm0IOBm4isF819/V3sC1wBuA4Y63otRAI8B5xBV1pRdkqfEI8FG2XpIs pTAKfJxmfbTXq/EM8BnicmZp4M0BPkW88EsvvrqMDcBFwH4dbFep9vYBLgTWU37R1W1sAi4FDml7 60o1Nhf4MjBO+cVW1zEJfIf4VEQaGLOAzxK7uqUXWd3HJHAxsbckNd4I8Ani8+/Si6spYxw4H3hB G9tbqo1h4EN4tr+dsR74JHGHI6mRTgMepvxiaupYBZxbeatLNbAA+DHlF1HTxz3ACRW3vVTULOKM fx1v3NHEcTlxj0N12bTSExhAQ8AHgD/C78B3y0IiplfjfQdVcy8H7qb8u+agjV8Qt0WTamtPYte/ 9GIZ1HElsO+U/zakPjsbP/Lr5dgI/D7eVUg1NB/4AeUXyaCPu4nDLHWBN2PonncCryk9iQReDLyf 3v8ASgoGoDvmA79B3M1XvXcO8aMo6pAB6I63EL/Lp/44lLiBqh9jd8gAdG5v4nJVr1nvr3cBR5We RNMZgM6dRtzYU/21EHg3fiLQEQPQmRnER38zS08kqbPwNmIdMQCdWQi8tvQkEjuK+Gl0tckAdOY0 4KDSk0hsFnEC1k9f2mQA2jcbOBPPRJf2eryRaNsMQPuOwI/+6uBQ4FWlJ9FUBqB9x+KNK+tgBDgR X8ttcaO1ZxpwPF6OWhfHEbddV0UGoD1ziT0A1cOLiFuwqSID0J6F+PPWdTIXz8e0xQC052XEb/yp HqYTfye+nityg7XnUPzsuW4OI351WRUYgOr2wM+d6+gQDEBlBqC6WcQegOplP+KbmarAAFQ3Czi4 9CT0PKO4Z1aZAahub/zRyjqaCRxQehJNYwCqm40XANXRdOLvRhUYgOpG8QtAdTSEJwErMwDVjeIe QF0ZgIoMQHWzcA+grgxARQaguhkYgLraE+8RWIkBqG4cf6G2rjYSvx6kKTIA1a0FNpWehHZorPQE msYAVDcGTJSehHbIAFRkAKozAPW0GQNQmQGozkOAepog/m5UgQGobgW+0OpoPfBE6Uk0jQGobg2w rPQk9DxjwNLSk2gaA1DdWnyh1dEK3AOozABUtwF4qPQk9DwP4UnAygxAe5biJwF1sxQDUJkBaM9d xLkA1cNm4E78dKYyA9Cee/AwoE5WAYtLT6KJDEB7VgA3l56EnrUUuLf0JJrIALRnI3AjfimoLhYT UVZFBqB9i4GVpSchJoAbiG9pqiID0L67gdtLT0IsB64pPYmmMgDtWwlcgd8/L+3HwH2lJ9FUBqAz VwGPl55EYhuA7xHfA1AbDEBn7gauKz2JxO4H/q/0JJrMAHRmDLiM+FRA/XclfjGrIwagc1cAt5ae REKPAt/CS7I7YgA6txz4Bl6G2m//BdxUehJNZwC647vAHaUnkcjjwMV46NUxA9AdS4FLcHe0X75H XIkp1cZhxBVpmx09HQ8BJ0/tr0S74y/cdM8qYB1wBjBSeC6DagL4AnApXoClGppNHAqUfpcc1HEN cNCU/zakAk4izgmUXiyDNlYD767w96Ap8BCg+x4D9gBOxe3bLZuBrwEX4setaoC5eCjQzfEj4iSr 1BhHEReqlF48TR9LgddX2/RSPZxNXLRSehE1dawFPgIMVd3wmhqPUXvrfuKjq1fjR4NVbQL+Afh7 vOJPDTYKfIr4znrpd9SmjAnipN/ebWxvqXbmAF8i3tVKL666j0ng28ABbW1pqab2Bb5OvLuVXmR1 HlcAC9rcxlKt7Q98lTimLb3Q6jYmgf8AXtT21pUaYB5xYmuM8ouuLmOc+HrvgR1sV6kx9gL+HHia 8ouv9BgDvogn/JTMTODDwIOUX4SlxmPAx4kgSukMEd8Z+CG5Tg5OAtcDZwLTO92IUtMdQnxMuIby i7PXYwz4J+CIbmw4aVDMAs4lfnNwEPcGJomfUvsQ8IIubTNp4CwA/pq423DpRdut8QTxyceReF2/ tFtb7ifwbeJGGKUXcLtjDXH77jcCM7q6haQEZgNvBf4NWEH5BT3VsQr4DnAOcRm0pA7MAt4E/Avx 0VkdzxFMEF99vpQ4u+9Hew3g8VizzAReSsTgzcDRxAm1Un+Pm4mLmW4nfqfv+8QPpIwVmo8qMgDN NETcduw4IganEB+rzSXOH/TSOLASuI/4ZeTvE59cbDlEUYMYgOabRhxnHwocS0ThGOBg4tBhlPZv RrKR+K2DtcDDwM3EYr+JuIJxNf4aUqMZgMEznTgsmEdE4JDWOIjYQxjdbkDssm87VgKPEL/C8xCx +FcSC9678g4QA5DHdOLwYFprTGfrLeEmiIU90RrjuNAlSZIkSZIkSZIkSZIkSZIkSZIkSZIkSZIk SZIkSZIkSZIkSZIkSZIkaarq/NuAw8CexA9YzgF+ifhxy5mtfzazNaaXmqBE/IbiutYYa/3vSmA5 8WOqY8B6YLLUBHelTgEYAV4IHA68EngJ8au2BwPziZ+6HmHrj1tOIyIhlTbJ1h9WnSB+Vn0t8Djx y8oPAXcDtwD3A6taf6a40gEYJRb8qcDxxMI/hPh5a9/ZNUg2AU8TMbgFuBH4ERGEsVKTKhGAEeAw 4HXAGcDJxDu8C16ZbCL2EH4CXAlcDTxIn/cM+hmAmcBxwHuAM4GDiN+rl7IbBx4B/hu4BFhMnEvo uX4EYDbxbv/rwOnAPn3670pNsxl4ElgEfIPYK3iml//BXi7EEWL3/neBNxHH9ZKm5mng+8AFxGFC Tw4NehGAIeBI4EPAe4H9e/DfkLJ4DPgm8BXgXmIvoWumdfPBiI/qzgW+ALwN2KvLjy9lM5vYk34D cT3BvcQ5g67oZgAOB/4S+GPgQDzOl7plCNgXOI24IO4u4mKjjnUjANOAtxDHKm8DZnThMSU93whw LPAq4krDB+jwkKDTAOxJHOv/LXHc77u+1FtDxB72G4gLiG4nriloSycBmAP8CfBnwLwOHkdSdbOB 1xLX0twEbGjnQdoNwH7Ap4HfIS7nldR/M4gThPsC1xPfP6iknQDsA3wOeB9eySeVNh04hnhTvoaK 3yuoGoC5wKeA38Jr96W6GAZeRnyb9lri48IpqRKAvYC/AD6M7/xS3QwDryAOya9lilcOTjUA04E/ BD6GH/NJdTWN+Er9BuA6pnATkqkG4F3AX+H1/FLdTQeOJq4RuHN3f3gqATgOOB84tLN5SeqTUeKc wE+AR3f1B3cXgPnAF4FTujMvSX2yL3E7vUXs4uPBXQVgGPgo8AG8957URAuIG5New04uGd5VAE4C PkN89CepeYaBI4gTgo/s6A/sLABzgM/irr/UdHOIN/Er2cHlwjvbtT8HOKuHk5LUP2cRa/p5dhSA /YD3E9/0k9R8exJrer/t/48dBeBs4vhf0uA4iVjbz7F9AOYT1/mP9GFCkvpnhFjb87f9h9sH4Azi F3okDZ7jiTX+rG0DMAq8Ha/1lwbVDGKNP3sPj20D8FLg1f2ekaS+ejWx1oHnBuDNbHd8IGngzCfW OrA1APPY7thA0sA6g9Z9PLcE4EjgJcWmI6mfXkKs+WcDcAJe8y9lMZdY8wwTVwmdgN/4k7IYJtb8 nsPE5YHHlp2PpD47FthvGFiIZ/+lbOYDC4eJH/X0xz2kXEaBww2AlNNzAiApn8OHiRsHSsrn4GHi lkGS8pkzTPzMsKR8ZhsAKa/ZQ8SdQr0DkJTPxiF28oMBkgaf1/9LiRkAKTEDICVmAKTEDICUmAGQ EjMAUmIGQErMAEiJGQApMQMgJWYApMQMgJSYAZASMwBSYgZASswASIkZACkxAyAlZgCkxAyAlJgB kBIzAFJiBkBKzABIiRkAKTEDICVmAKTEDICUmAGQEjMAUmIGQErMAEiJGQApMQMgJWYApMQMgJSY AZASMwBSYgZASswASIkZACmx6aUn0KYxYBGwrs1/fxg4HljQtRmpyVYDPwTWt/nvzwROB0a7NaF+ aWoAngL+AFgGDLXx748AF2IAFJYBHwUep/rraTNwIBEQA9Ank8CG1mjHRGtIEIu4k9fTBuI12Tie A5ASMwBSYgZASswASIkZACkxAyAlZgCkxAyAlJgBkBIzAFJiBkBKzABIiRkAKTEDICVmAKTEDICU mAGQEjMAUmIGQErMAEiJGQApMQMgJWYApMQMgJSYAZASMwBSYgZASswASIkZACkxAyAlZgCkxAyA lJgBkBIzAFJiBkBKzABIiRkAKTEDICVmAKTEDICUmAGQEjMAUmIGQErMAEiJGQApMQMgJWYApMQM gJSYAZASMwBSYgZASswASIkZACkxAyAlZgCkxAyAlJgBkBIzAFJiBkBKzABIiRkAKTEDICVmAKTE DICUmAGQEjMAUmIGQErMAEiJGQApMQMgJWYApMQMgJSYAZASMwBSYgZASswASIkZACkxAyAlZgCk xAyAlJgBkBIzAFJiBkBKzABIiRkAKTEDICVmAKTEDICUmAGQEjMAUmIGQErMAEiJGQApMQMgJWYA pMQMgJSYAZASMwBSYgZASswASIkZACkxAyAlZgCkxAyAlJgBkBIzAFJiBkBKzABIiRkAKTEDICVm AKTEDICUmAGQEjMAUmIGQErMAEiJGQApMQMgJWYApMQMgJSYAZASMwBSYgZASswASIkZACkxAyAl ZgCkxAyAlJgBkBIzAFJiBkBKzABIiRkAKTEDICVmAKTEDICUmAGQEjMAUmIGQErMAEiJGQApMQMg JWYApMQMgJSYAZASMwBSYgZASswASIkZACkxAyAlZgCkxAyAlJgBkBIzAFJiBkBKzABIiRkAKTED ICVmAKTEDICUmAGQEmtqAIZKT0DaTiNfk8PAROlJtGETsLn0JKSWzcRrsmkmhoF1pWfRhvU0M1wa TBPEa7Jp1g0DY6Vn0YZ1GADVxwTNfCMdGwaeLD2LNqwExktPQmoZJ16TTfPkMPBg6Vm04WGaueei wTRGvCab5sFhYEnpWbThYdwDUH2M08wALBkGbqVZxy/rgDtLT0Lazp00bx3dOgxcDzxVeDJVrCCi JdXJrcRrsymeAq7fcg7g9rJzqeRWYFnpSUjbWUaz3phup3UOYDWwCJgsO58pmQSuAtaUnoi0nTXE a7Mp62gRsHrLpcCLaMa76sPEXKU6WkQzTgYuo7WOtgTgLuCyYtOZusuAe0pPQtqJe2jOOroLtgZg HPg6sLzUjKZgGTFHP/5TXW1ZR3Xem17ONuto228D3gBcTD2PYSaBfwYWl56ItBuLiddqXdfRxcRa B54bgE3ARcB1fZ7UVFwHfIVmfuNKuWwiXqt1XUcXsc062v5+AEuBPwV+3sdJ7c69xJyWlp6INEVb 1tG9pSeyjZ9TYR29gzhW2Fx4LAPe3sGT3pk9gK/V4Pk56jHuAObTfW8nXsOln99yYk1P2TDwQeLK plKTfgp4P725a5EBcGw7ehWAYeI1/FTB57aCWMuV19EI8D7g/gKTvg84j1iovWAAHNuOXgUA4rV2 HvGa7vfzup9YwyPtTn4IOIW4aGCiDxOeIK6mOpne3mPNADi2Hb0MAMRr+WTitd2vdbSIWLtdWUcH Ap8HHiU+Suj2hCdbj/351n+r1wyAY9vR6wBs0eh1NAM4CbgAeKhLT2Cy9Vjntx57RrcnvRMGwLHt 6FcAYOs6Op/ur6MLqLiOpleY+Abgp8BNwFeBdwGvA44E5lV4rC23T7oHuBr4d+BneIWfctjZOnox MJepn/faRJzgu5et6+gOKq6jKgHYYhy4GbgNeAGwADgBOA44iHgS84DZrT//TGuiK4kvSiwmrkR6 kPgmYh2vmJJ6bRy4hVhHc4DD2LqODmbX6+gRtq6jJcDTtHmT3HYCsMVEazIriZrtAexJnHHcAxht /bkx4sluJO5C4tV80laTbF1HNxNrcia7Xkfr6dIecycB2N447sZLndpEH+930dSfBpPUBQZASswA SIkZACkxAyAlZgCkxAyAlJgBkBIzAFJiBkBKzABIiRkAKTEDICVmAKTEDICUmAGQEjMAUmIGQErM AEiJGQApsW7eFFT1sBG4BLiV7gV+EngF8B46+J051Y8BGDzjwHdbo5veAbwbAzBQPAQYPEP05odV e/W4KsgASIkZACkxAyAlZgCkxAyAlJgBkBIzAFJiBkBKzABIiRkAKTEDICVmAKTEDICUmAGQEjMA UmIGQErMAEiJGQApMQMgJWYApMQMgJSYAZASMwBSYgZASswASIkZACkxAyAlZgCkxAyAlJgBkBIz AFJiBkBKzABIiRkAKTEDICVmAKTEDICUmAGQEjMAUmIGQErMAEiJGQApMQMgJWYApMQMgJSYAZAS MwBSYgZASswASIkZACkxAyAlZgCkxAyAlJgBkBIzAFJiBkBKzABIiRkAKTEDICVmAKTEDICUmAGQ EjMAUmIGQErMAEiJGQApMQMgJWYApMQMgJSYAZASMwBSYgZASswASIkZACkxAyAlZgCkxAyAlJgB kBIzAFJiBkBKzABIiRkAKTEDICVmAKTEDICUmAGQEjMAUmIGQErMAEiJGQApMQMgJWYApMQMgJSY AZASMwBSYgZASswASIkZACkxAyAlZgCkxAyAlJgBkBIzAFJiBkBKzABIiRkAKTEDICVmAKTEDICU mAGQEjMAUmIGQErMAEiJGQApMQMgJWYApMQMgJSYAZASMwBSYgZASswASIkZACkxAyAlZgCkxAyA lJgBkBIzAFJiBkBKzABIiRkAKTEDICVmAKTEDICUmAGQEjMAUmIGQErMAEiJGQApMQMgJWYApMQM gJSYAZASMwBSYgZASswASIkZACkxAyAlZgCkxAyAlJgBkBIzAFJiBkBKzABIiRkAKTEDICVmAKTE DICUmAGQEjMAUmIGQErMAEiJGQApMQMgJWYApMQMgJSYAZASMwBSYgZASswASIkZACkxAyAlZgCk xAyAlJgBkBIzAFJiBkBKzABIiRkAKTEDICVmAKTEDICUmAGQEjMAUmIGQErMAEiJGQApMQMgJWYA pMQMgJSYAZASMwBSYgZASswASIkZACkxAyAlZgCkxAyAlJgBkBIzAFJiBkBKzABIiRkAKTEDICVm AKTEDICUmAGQEjMAUmIGQErMAEiJGQApMQMgJWYApMQMgJSYAZASMwBSYgZASswASIkZACkxAyAl ZgCkxAyAlJgBkBIzAFJiBkBKzABIiRkAKTEDICVmAKTEDICUmAGQEjMAUmIGQErMAEiJGQApMQMg JWYApMQMgJSYAZASMwBSYgZASswASIkZACkxAyAlZgCkxAyAlJgBkBIzAFJiBkBKzABIiRkAKTED ICVmAKTEDICUmAGQEjMAUmKZA7C59AR6ZDO9eW69etw6GOTntktZAzAJrC89iR6ZBDb04HHXtx57 EK1jcJ/bLmUNwASwtvQkemSCeEF32xiwqQePWwfPMLjPbZeyBgBgVekJ9Mg4vXluq1qPPYhWAhtL T6KEzAFYSm92lUtbBfyiB4/7JIMbzaXEHk46mQNwP4N5GPAQsUvbbWtbjz1oJonXQkqZA7AEeKT0 JHrgTmBNDx53TeuxB81q4PbSkyglcwCeAm4oPYku2wgspjdntCeBGxm8w6YHgLtLT6KUzAEYB37E YJ38eYIIQK/cCDzew8cv4RrizSClzAEAuBq4t/Qkuugn9PZ4dgmxYAbF08DlxEenKWUPwMPEC2AQ bAS+R2+uAdhiPXAZg3MR1Q3AT0tPQmUdS3wMtLnh48fAAV3eNjuyP7EXUPr5djrWAed1eduogaYB f0P5F2QnYwz4zW5vmF34bWKPo/Tz7mRcBezd7Q2jZjqK+Cio9Iuy3XE5MLfrW2Xn5gP/24Pn0a+x Aji761tFjXYecQFN6Rdn1bGaMi/mtxELqfTzrzomgS8AI93fJGqyUeBC4oxw6RdplRfzRa2599sM 4HPEl2hKb4cq4wfAgh5sDw2A+cC/Egur9At1KuMK4OCebImp2Re4dAfzquu4mTjpK+3UAuIEUekX 6+7GrcAre7QNqjicuJ6i9PbY3bgP+JUebQMNmKOB6yn/ot3ZeAQ4s2fPvrqTgJ9RfrvsbCwH3tmz Z6+BdCLwQ+p3OPAA8GvU7yKu04ld7NLbZ/txD/Cr1G97qQEOAb5MfBW29At5M3AtcCow1Msn3YGj iSsF63BicII4lDuxp89YA2828HvAMsq9mDcC3wKO7PFz7Yb9gQsoG81nWnM4sMfPVUlMI3ZxL6f/ L+xlwCeBfXr+LLtnNvARYve7n4dQW74O/QFgVs+fpdJ5IXH8fRVx+W0vX8yriHf91wDT+/HkumwI eCnwJeBRehuCceJTkY8RH4vW9RBJA2IecC5xOexquvfingAeA75JnOWf3a8n1EMzgJOJXfIH6O53 CNYBtwGfAA7DhV+ZG6wz84DjgDcCrwUWEnsJVS4zXUdcUnsX8D/E3sWd9PZrvSXsQWyf1xPb6xhg P2JXfaqvw03ErcmWEfc+WER8M3E5Se/r3ykD0B3TiRi8iDjr/MvEBUWHEF/SmUW8E64nTlCtAB4k 3hFvI76XvoTYm9jc36kXMZs4QXdsaxxOvIPPJ7bVLLb+dsPTxHUPS4ibt9wI3EHc/WiQ7uZUxP8D 0qyxWY8IWZgAAAAASUVORK5CYII= "
       id="image4147"
       x="-89.320763"
       y="444.85452"
       inkscape:export-xdpi="109.05068"
       inkscape:export-ydpi="109.05068" />
    <image
       y="444.85452"
       x="71.137993"
       id="image4779"
       xlink:href="data:image/png;base64,iVBORw0KGgoAAAANSUhEUgAAAQAAAALMCAYAAAALsGw0AAAABHNCSVQICAgIfAhkiAAAGrxJREFU eJzt3XmwnWV9wPHvvQk35CYYE5ZAWRMEpSrKDi5oEUVEUdSZVltKXUY7dmpb21o705nWdrRqbauA U3Q62mIVau1oW6QgqRUroEDYZRMIARIWIQshN8vNvekfvxMSQpb7nu153/P7fmaecQbD4TlvzvM9 7/ue97xnCA2aGcA84ABgIXB4638XtP75bGDWNgNg7TbjGWAFsAR4YJuxvPXPN/TpeagPhkpPQB2b DryQWOjHAccDxwD7A6OtMb3Nx94EjLXGY8AtwI3AYuA+YFXrz6ihDEAzDQF7AycCZwCnEO/yc2h/ sU/VJmA1sYdwHXAlcD3wFDDZ4/+2uswANMso8HLgzcTCfxmwV9EZwRrgTuAKIga3EYcSkrpkFrHo LwGeIN5pN9dsTAK/AL4FnEX5MEmNtxfwVuDbwErKL/KpjtXAd4FziMMSSRXsAZxKLPzVlF/Q7Y41 wH8CpwMjXd1C0oA6DPg08bFb6QXcrfEE8HfAEXjeSdqhUeC9wA3ABOUXbbfHJHGC8IN4fkB6jgOB LwJPU36h9nqsBf6R+NhSSm0IOBm4isF819/V3sC1wBuA4Y63otRAI8B5xBV1pRdkqfEI8FG2XpIs pTAKfJxmfbTXq/EM8BnicmZp4M0BPkW88EsvvrqMDcBFwH4dbFep9vYBLgTWU37R1W1sAi4FDml7 60o1Nhf4MjBO+cVW1zEJfIf4VEQaGLOAzxK7uqUXWd3HJHAxsbckNd4I8Ani8+/Si6spYxw4H3hB G9tbqo1h4EN4tr+dsR74JHGHI6mRTgMepvxiaupYBZxbeatLNbAA+DHlF1HTxz3ACRW3vVTULOKM fx1v3NHEcTlxj0N12bTSExhAQ8AHgD/C78B3y0IiplfjfQdVcy8H7qb8u+agjV8Qt0WTamtPYte/ 9GIZ1HElsO+U/zakPjsbP/Lr5dgI/D7eVUg1NB/4AeUXyaCPu4nDLHWBN2PonncCryk9iQReDLyf 3v8ASgoGoDvmA79B3M1XvXcO8aMo6pAB6I63EL/Lp/44lLiBqh9jd8gAdG5v4nJVr1nvr3cBR5We RNMZgM6dRtzYU/21EHg3fiLQEQPQmRnER38zS08kqbPwNmIdMQCdWQi8tvQkEjuK+Gl0tckAdOY0 4KDSk0hsFnEC1k9f2mQA2jcbOBPPRJf2eryRaNsMQPuOwI/+6uBQ4FWlJ9FUBqB9x+KNK+tgBDgR X8ttcaO1ZxpwPF6OWhfHEbddV0UGoD1ziT0A1cOLiFuwqSID0J6F+PPWdTIXz8e0xQC052XEb/yp HqYTfye+nityg7XnUPzsuW4OI351WRUYgOr2wM+d6+gQDEBlBqC6WcQegOplP+KbmarAAFQ3Czi4 9CT0PKO4Z1aZAahub/zRyjqaCRxQehJNYwCqm40XANXRdOLvRhUYgOpG8QtAdTSEJwErMwDVjeIe QF0ZgIoMQHWzcA+grgxARQaguhkYgLraE+8RWIkBqG4cf6G2rjYSvx6kKTIA1a0FNpWehHZorPQE msYAVDcGTJSehHbIAFRkAKozAPW0GQNQmQGozkOAepog/m5UgQGobgW+0OpoPfBE6Uk0jQGobg2w rPQk9DxjwNLSk2gaA1DdWnyh1dEK3AOozABUtwF4qPQk9DwP4UnAygxAe5biJwF1sxQDUJkBaM9d xLkA1cNm4E78dKYyA9Cee/AwoE5WAYtLT6KJDEB7VgA3l56EnrUUuLf0JJrIALRnI3AjfimoLhYT UVZFBqB9i4GVpSchJoAbiG9pqiID0L67gdtLT0IsB64pPYmmMgDtWwlcgd8/L+3HwH2lJ9FUBqAz VwGPl55EYhuA7xHfA1AbDEBn7gauKz2JxO4H/q/0JJrMAHRmDLiM+FRA/XclfjGrIwagc1cAt5ae REKPAt/CS7I7YgA6txz4Bl6G2m//BdxUehJNZwC647vAHaUnkcjjwMV46NUxA9AdS4FLcHe0X75H XIkp1cZhxBVpmx09HQ8BJ0/tr0S74y/cdM8qYB1wBjBSeC6DagL4AnApXoClGppNHAqUfpcc1HEN cNCU/zakAk4izgmUXiyDNlYD767w96Ap8BCg+x4D9gBOxe3bLZuBrwEX4setaoC5eCjQzfEj4iSr 1BhHEReqlF48TR9LgddX2/RSPZxNXLRSehE1dawFPgIMVd3wmhqPUXvrfuKjq1fjR4NVbQL+Afh7 vOJPDTYKfIr4znrpd9SmjAnipN/ebWxvqXbmAF8i3tVKL666j0ng28ABbW1pqab2Bb5OvLuVXmR1 HlcAC9rcxlKt7Q98lTimLb3Q6jYmgf8AXtT21pUaYB5xYmuM8ouuLmOc+HrvgR1sV6kx9gL+HHia 8ouv9BgDvogn/JTMTODDwIOUX4SlxmPAx4kgSukMEd8Z+CG5Tg5OAtcDZwLTO92IUtMdQnxMuIby i7PXYwz4J+CIbmw4aVDMAs4lfnNwEPcGJomfUvsQ8IIubTNp4CwA/pq423DpRdut8QTxyceReF2/ tFtb7ifwbeJGGKUXcLtjDXH77jcCM7q6haQEZgNvBf4NWEH5BT3VsQr4DnAOcRm0pA7MAt4E/Avx 0VkdzxFMEF99vpQ4u+9Hew3g8VizzAReSsTgzcDRxAm1Un+Pm4mLmW4nfqfv+8QPpIwVmo8qMgDN NETcduw4IganEB+rzSXOH/TSOLASuI/4ZeTvE59cbDlEUYMYgOabRhxnHwocS0ThGOBg4tBhlPZv RrKR+K2DtcDDwM3EYr+JuIJxNf4aUqMZgMEznTgsmEdE4JDWOIjYQxjdbkDssm87VgKPEL/C8xCx +FcSC9678g4QA5DHdOLwYFprTGfrLeEmiIU90RrjuNAlSZIkSZIkSZIkSZIkSZIkSZIkSZIkSZIk SZIkSZIkSZIkSZIkSZIkaarq/NuAw8CexA9YzgF+ifhxy5mtfzazNaaXmqBE/IbiutYYa/3vSmA5 8WOqY8B6YLLUBHelTgEYAV4IHA68EngJ8au2BwPziZ+6HmHrj1tOIyIhlTbJ1h9WnSB+Vn0t8Djx y8oPAXcDtwD3A6taf6a40gEYJRb8qcDxxMI/hPh5a9/ZNUg2AU8TMbgFuBH4ERGEsVKTKhGAEeAw 4HXAGcDJxDu8C16ZbCL2EH4CXAlcDTxIn/cM+hmAmcBxwHuAM4GDiN+rl7IbBx4B/hu4BFhMnEvo uX4EYDbxbv/rwOnAPn3670pNsxl4ElgEfIPYK3iml//BXi7EEWL3/neBNxHH9ZKm5mng+8AFxGFC Tw4NehGAIeBI4EPAe4H9e/DfkLJ4DPgm8BXgXmIvoWumdfPBiI/qzgW+ALwN2KvLjy9lM5vYk34D cT3BvcQ5g67oZgAOB/4S+GPgQDzOl7plCNgXOI24IO4u4mKjjnUjANOAtxDHKm8DZnThMSU93whw LPAq4krDB+jwkKDTAOxJHOv/LXHc77u+1FtDxB72G4gLiG4nriloSycBmAP8CfBnwLwOHkdSdbOB 1xLX0twEbGjnQdoNwH7Ap4HfIS7nldR/M4gThPsC1xPfP6iknQDsA3wOeB9eySeVNh04hnhTvoaK 3yuoGoC5wKeA38Jr96W6GAZeRnyb9lri48IpqRKAvYC/AD6M7/xS3QwDryAOya9lilcOTjUA04E/ BD6GH/NJdTWN+Er9BuA6pnATkqkG4F3AX+H1/FLdTQeOJq4RuHN3f3gqATgOOB84tLN5SeqTUeKc wE+AR3f1B3cXgPnAF4FTujMvSX2yL3E7vUXs4uPBXQVgGPgo8AG8957URAuIG5New04uGd5VAE4C PkN89CepeYaBI4gTgo/s6A/sLABzgM/irr/UdHOIN/Er2cHlwjvbtT8HOKuHk5LUP2cRa/p5dhSA /YD3E9/0k9R8exJrer/t/48dBeBs4vhf0uA4iVjbz7F9AOYT1/mP9GFCkvpnhFjb87f9h9sH4Azi F3okDZ7jiTX+rG0DMAq8Ha/1lwbVDGKNP3sPj20D8FLg1f2ekaS+ejWx1oHnBuDNbHd8IGngzCfW OrA1APPY7thA0sA6g9Z9PLcE4EjgJcWmI6mfXkKs+WcDcAJe8y9lMZdY8wwTVwmdgN/4k7IYJtb8 nsPE5YHHlp2PpD47FthvGFiIZ/+lbOYDC4eJH/X0xz2kXEaBww2AlNNzAiApn8OHiRsHSsrn4GHi lkGS8pkzTPzMsKR8ZhsAKa/ZQ8SdQr0DkJTPxiF28oMBkgaf1/9LiRkAKTEDICVmAKTEDICUmAGQ EjMAUmIGQErMAEiJGQApMQMgJWYApMQMgJSYAZASMwBSYgZASswASIkZACkxAyAlZgCkxAyAlJgB kBIzAFJiBkBKzABIiRkAKTEDICVmAKTEDICUmAGQEjMAUmIGQErMAEiJGQApMQMgJWYApMQMgJSY AZASMwBSYgZASswASIkZACmx6aUn0KYxYBGwrs1/fxg4HljQtRmpyVYDPwTWt/nvzwROB0a7NaF+ aWoAngL+AFgGDLXx748AF2IAFJYBHwUep/rraTNwIBEQA9Ank8CG1mjHRGtIEIu4k9fTBuI12Tie A5ASMwBSYgZASswASIkZACkxAyAlZgCkxAyAlJgBkBIzAFJiBkBKzABIiRkAKTEDICVmAKTEDICU mAGQEjMAUmIGQErMAEiJGQApMQMgJWYApMQMgJSYAZASMwBSYgZASswASIkZACkxAyAlZgCkxAyA lJgBkBIzAFJiBkBKzABIiRkAKTEDICVmAKTEDICUmAGQEjMAUmIGQErMAEiJGQApMQMgJWYApMQM gJSYAZASMwBSYgZASswASIkZACkxAyAlZgCkxAyAlJgBkBIzAFJiBkBKzABIiRkAKTEDICVmAKTE DICUmAGQEjMAUmIGQErMAEiJGQApMQMgJWYApMQMgJSYAZASMwBSYgZASswASIkZACkxAyAlZgCk xAyAlJgBkBIzAFJiBkBKzABIiRkAKTEDICVmAKTEDICUmAGQEjMAUmIGQErMAEiJGQApMQMgJWYA pMQMgJSYAZASMwBSYgZASswASIkZACkxAyAlZgCkxAyAlJgBkBIzAFJiBkBKzABIiRkAKTEDICVm AKTEDICUmAGQEjMAUmIGQErMAEiJGQApMQMgJWYApMQMgJSYAZASMwBSYgZASswASIkZACkxAyAl ZgCkxAyAlJgBkBIzAFJiBkBKzABIiRkAKTEDICVmAKTEDICUmAGQEjMAUmIGQErMAEiJGQApMQMg JWYApMQMgJSYAZASMwBSYgZASswASIkZACkxAyAlZgCkxAyAlJgBkBIzAFJiBkBKzABIiRkAKTED ICVmAKTEDICUmAGQEmtqAIZKT0DaTiNfk8PAROlJtGETsLn0JKSWzcRrsmkmhoF1pWfRhvU0M1wa TBPEa7Jp1g0DY6Vn0YZ1GADVxwTNfCMdGwaeLD2LNqwExktPQmoZJ16TTfPkMPBg6Vm04WGaueei wTRGvCab5sFhYEnpWbThYdwDUH2M08wALBkGbqVZxy/rgDtLT0Lazp00bx3dOgxcDzxVeDJVrCCi JdXJrcRrsymeAq7fcg7g9rJzqeRWYFnpSUjbWUaz3phup3UOYDWwCJgsO58pmQSuAtaUnoi0nTXE a7Mp62gRsHrLpcCLaMa76sPEXKU6WkQzTgYuo7WOtgTgLuCyYtOZusuAe0pPQtqJe2jOOroLtgZg HPg6sLzUjKZgGTFHP/5TXW1ZR3Xem17ONuto228D3gBcTD2PYSaBfwYWl56ItBuLiddqXdfRxcRa B54bgE3ARcB1fZ7UVFwHfIVmfuNKuWwiXqt1XUcXsc062v5+AEuBPwV+3sdJ7c69xJyWlp6INEVb 1tG9pSeyjZ9TYR29gzhW2Fx4LAPe3sGT3pk9gK/V4Pk56jHuAObTfW8nXsOln99yYk1P2TDwQeLK plKTfgp4P725a5EBcGw7ehWAYeI1/FTB57aCWMuV19EI8D7g/gKTvg84j1iovWAAHNuOXgUA4rV2 HvGa7vfzup9YwyPtTn4IOIW4aGCiDxOeIK6mOpne3mPNADi2Hb0MAMRr+WTitd2vdbSIWLtdWUcH Ap8HHiU+Suj2hCdbj/351n+r1wyAY9vR6wBs0eh1NAM4CbgAeKhLT2Cy9Vjntx57RrcnvRMGwLHt 6FcAYOs6Op/ur6MLqLiOpleY+Abgp8BNwFeBdwGvA44E5lV4rC23T7oHuBr4d+BneIWfctjZOnox MJepn/faRJzgu5et6+gOKq6jKgHYYhy4GbgNeAGwADgBOA44iHgS84DZrT//TGuiK4kvSiwmrkR6 kPgmYh2vmJJ6bRy4hVhHc4DD2LqODmbX6+gRtq6jJcDTtHmT3HYCsMVEazIriZrtAexJnHHcAxht /bkx4sluJO5C4tV80laTbF1HNxNrcia7Xkfr6dIecycB2N447sZLndpEH+930dSfBpPUBQZASswA SIkZACkxAyAlZgCkxAyAlJgBkBIzAFJiBkBKzABIiRkAKTEDICVmAKTEDICUmAGQEjMAUmIGQErM AEiJGQApsW7eFFT1sBG4BLiV7gV+EngF8B46+J051Y8BGDzjwHdbo5veAbwbAzBQPAQYPEP05odV e/W4KsgASIkZACkxAyAlZgCkxAyAlJgBkBIzAFJiBkBKzABIiRkAKTEDICVmAKTEDICUmAGQEjMA UmIGQErMAEiJGQApMQMgJWYApMQMgJSYAZASMwBSYgZASswASIkZACkxAyAlZgCkxAyAlJgBkBIz AFJiBkBKzABIiRkAKTEDICVmAKTEDICUmAGQEjMAUmIGQErMAEiJGQApMQMgJWYApMQMgJSYAZAS MwBSYgZASswASIkZACkxAyAlZgCkxAyAlJgBkBIzAFJiBkBKzABIiRkAKTEDICVmAKTEDICUmAGQ EjMAUmIGQErMAEiJGQApMQMgJWYApMQMgJSYAZASMwBSYgZASswASIkZACkxAyAlZgCkxAyAlJgB kBIzAFJiBkBKzABIiRkAKTEDICVmAKTEDICUmAGQEjMAUmIGQErMAEiJGQApMQMgJWYApMQMgJSY AZASMwBSYgZASswASIkZACkxAyAlZgCkxAyAlJgBkBIzAFJiBkBKzABIiRkAKTEDICVmAKTEDICU mAGQEjMAUmIGQErMAEiJGQApMQMgJWYApMQMgJSYAZASMwBSYgZASswASIkZACkxAyAlZgCkxAyA lJgBkBIzAFJiBkBKzABIiRkAKTEDICVmAKTEDICUmAGQEjMAUmIGQErMAEiJGQApMQMgJWYApMQM gJSYAZASMwBSYgZASswASIkZACkxAyAlZgCkxAyAlJgBkBIzAFJiBkBKzABIiRkAKTEDICVmAKTE DICUmAGQEjMAUmIGQErMAEiJGQApMQMgJWYApMQMgJSYAZASMwBSYgZASswASIkZACkxAyAlZgCk xAyAlJgBkBIzAFJiBkBKzABIiRkAKTEDICVmAKTEDICUmAGQEjMAUmIGQErMAEiJGQApMQMgJWYA pMQMgJSYAZASMwBSYgZASswASIkZACkxAyAlZgCkxAyAlJgBkBIzAFJiBkBKzABIiRkAKTEDICVm AKTEDICUmAGQEjMAUmIGQErMAEiJGQApMQMgJWYApMQMgJSYAZASMwBSYgZASswASIkZACkxAyAl ZgCkxAyAlJgBkBIzAFJiBkBKzABIiRkAKTEDICVmAKTEDICUmAGQEjMAUmIGQErMAEiJGQApMQMg JWYApMQMgJSYAZASMwBSYgZASswASIkZACkxAyAlZgCkxAyAlJgBkBIzAFJiBkBKzABIiRkAKTED ICVmAKTEDICUmAGQEjMAUmKZA7C59AR6ZDO9eW69etw6GOTntktZAzAJrC89iR6ZBDb04HHXtx57 EK1jcJ/bLmUNwASwtvQkemSCeEF32xiwqQePWwfPMLjPbZeyBgBgVekJ9Mg4vXluq1qPPYhWAhtL T6KEzAFYSm92lUtbBfyiB4/7JIMbzaXEHk46mQNwP4N5GPAQsUvbbWtbjz1oJonXQkqZA7AEeKT0 JHrgTmBNDx53TeuxB81q4PbSkyglcwCeAm4oPYku2wgspjdntCeBGxm8w6YHgLtLT6KUzAEYB37E YJ38eYIIQK/cCDzew8cv4RrizSClzAEAuBq4t/Qkuugn9PZ4dgmxYAbF08DlxEenKWUPwMPEC2AQ bAS+R2+uAdhiPXAZg3MR1Q3AT0tPQmUdS3wMtLnh48fAAV3eNjuyP7EXUPr5djrWAed1eduogaYB f0P5F2QnYwz4zW5vmF34bWKPo/Tz7mRcBezd7Q2jZjqK+Cio9Iuy3XE5MLfrW2Xn5gP/24Pn0a+x Aji761tFjXYecQFN6Rdn1bGaMi/mtxELqfTzrzomgS8AI93fJGqyUeBC4oxw6RdplRfzRa2599sM 4HPEl2hKb4cq4wfAgh5sDw2A+cC/Egur9At1KuMK4OCebImp2Re4dAfzquu4mTjpK+3UAuIEUekX 6+7GrcAre7QNqjicuJ6i9PbY3bgP+JUebQMNmKOB6yn/ot3ZeAQ4s2fPvrqTgJ9RfrvsbCwH3tmz Z6+BdCLwQ+p3OPAA8GvU7yKu04ld7NLbZ/txD/Cr1G97qQEOAb5MfBW29At5M3AtcCow1Msn3YGj iSsF63BicII4lDuxp89YA2828HvAMsq9mDcC3wKO7PFz7Yb9gQsoG81nWnM4sMfPVUlMI3ZxL6f/ L+xlwCeBfXr+LLtnNvARYve7n4dQW74O/QFgVs+fpdJ5IXH8fRVx+W0vX8yriHf91wDT+/HkumwI eCnwJeBRehuCceJTkY8RH4vW9RBJA2IecC5xOexquvfingAeA75JnOWf3a8n1EMzgJOJXfIH6O53 CNYBtwGfAA7DhV+ZG6wz84DjgDcCrwUWEnsJVS4zXUdcUnsX8D/E3sWd9PZrvSXsQWyf1xPb6xhg P2JXfaqvw03ErcmWEfc+WER8M3E5Se/r3ykD0B3TiRi8iDjr/MvEBUWHEF/SmUW8E64nTlCtAB4k 3hFvI76XvoTYm9jc36kXMZs4QXdsaxxOvIPPJ7bVLLb+dsPTxHUPS4ibt9wI3EHc/WiQ7uZUxP8D 0qyxWY8IWZgAAAAASUVORK5CYII= "
       style="image-rendering:optimizeSpeed"
       preserveAspectRatio="none"
       height="330.12173"
       width="118.03235"
       inkscape:export-xdpi="109.05068"
       inkscape:export-ydpi="109.05068" />
    <image
       y="444.85452"
       x="235.94836"
       id="image4781"
       xlink:href="data:image/png;base64,iVBORw0KGgoAAAANSUhEUgAAAQAAAALMCAYAAAALsGw0AAAABHNCSVQICAgIfAhkiAAAGrxJREFU eJzt3XmwnWV9wPHvvQk35CYYE5ZAWRMEpSrKDi5oEUVEUdSZVltKXUY7dmpb21o705nWdrRqbauA U3Q62mIVau1oW6QgqRUroEDYZRMIARIWIQshN8vNvekfvxMSQpb7nu153/P7fmaecQbD4TlvzvM9 7/ue97xnCA2aGcA84ABgIXB4638XtP75bGDWNgNg7TbjGWAFsAR4YJuxvPXPN/TpeagPhkpPQB2b DryQWOjHAccDxwD7A6OtMb3Nx94EjLXGY8AtwI3AYuA+YFXrz6ihDEAzDQF7AycCZwCnEO/yc2h/ sU/VJmA1sYdwHXAlcD3wFDDZ4/+2uswANMso8HLgzcTCfxmwV9EZwRrgTuAKIga3EYcSkrpkFrHo LwGeIN5pN9dsTAK/AL4FnEX5MEmNtxfwVuDbwErKL/KpjtXAd4FziMMSSRXsAZxKLPzVlF/Q7Y41 wH8CpwMjXd1C0oA6DPg08bFb6QXcrfEE8HfAEXjeSdqhUeC9wA3ABOUXbbfHJHGC8IN4fkB6jgOB LwJPU36h9nqsBf6R+NhSSm0IOBm4isF819/V3sC1wBuA4Y63otRAI8B5xBV1pRdkqfEI8FG2XpIs pTAKfJxmfbTXq/EM8BnicmZp4M0BPkW88EsvvrqMDcBFwH4dbFep9vYBLgTWU37R1W1sAi4FDml7 60o1Nhf4MjBO+cVW1zEJfIf4VEQaGLOAzxK7uqUXWd3HJHAxsbckNd4I8Ani8+/Si6spYxw4H3hB G9tbqo1h4EN4tr+dsR74JHGHI6mRTgMepvxiaupYBZxbeatLNbAA+DHlF1HTxz3ACRW3vVTULOKM fx1v3NHEcTlxj0N12bTSExhAQ8AHgD/C78B3y0IiplfjfQdVcy8H7qb8u+agjV8Qt0WTamtPYte/ 9GIZ1HElsO+U/zakPjsbP/Lr5dgI/D7eVUg1NB/4AeUXyaCPu4nDLHWBN2PonncCryk9iQReDLyf 3v8ASgoGoDvmA79B3M1XvXcO8aMo6pAB6I63EL/Lp/44lLiBqh9jd8gAdG5v4nJVr1nvr3cBR5We RNMZgM6dRtzYU/21EHg3fiLQEQPQmRnER38zS08kqbPwNmIdMQCdWQi8tvQkEjuK+Gl0tckAdOY0 4KDSk0hsFnEC1k9f2mQA2jcbOBPPRJf2eryRaNsMQPuOwI/+6uBQ4FWlJ9FUBqB9x+KNK+tgBDgR X8ttcaO1ZxpwPF6OWhfHEbddV0UGoD1ziT0A1cOLiFuwqSID0J6F+PPWdTIXz8e0xQC052XEb/yp HqYTfye+nityg7XnUPzsuW4OI351WRUYgOr2wM+d6+gQDEBlBqC6WcQegOplP+KbmarAAFQ3Czi4 9CT0PKO4Z1aZAahub/zRyjqaCRxQehJNYwCqm40XANXRdOLvRhUYgOpG8QtAdTSEJwErMwDVjeIe QF0ZgIoMQHWzcA+grgxARQaguhkYgLraE+8RWIkBqG4cf6G2rjYSvx6kKTIA1a0FNpWehHZorPQE msYAVDcGTJSehHbIAFRkAKozAPW0GQNQmQGozkOAepog/m5UgQGobgW+0OpoPfBE6Uk0jQGobg2w rPQk9DxjwNLSk2gaA1DdWnyh1dEK3AOozABUtwF4qPQk9DwP4UnAygxAe5biJwF1sxQDUJkBaM9d xLkA1cNm4E78dKYyA9Cee/AwoE5WAYtLT6KJDEB7VgA3l56EnrUUuLf0JJrIALRnI3AjfimoLhYT UVZFBqB9i4GVpSchJoAbiG9pqiID0L67gdtLT0IsB64pPYmmMgDtWwlcgd8/L+3HwH2lJ9FUBqAz VwGPl55EYhuA7xHfA1AbDEBn7gauKz2JxO4H/q/0JJrMAHRmDLiM+FRA/XclfjGrIwagc1cAt5ae REKPAt/CS7I7YgA6txz4Bl6G2m//BdxUehJNZwC647vAHaUnkcjjwMV46NUxA9AdS4FLcHe0X75H XIkp1cZhxBVpmx09HQ8BJ0/tr0S74y/cdM8qYB1wBjBSeC6DagL4AnApXoClGppNHAqUfpcc1HEN cNCU/zakAk4izgmUXiyDNlYD767w96Ap8BCg+x4D9gBOxe3bLZuBrwEX4setaoC5eCjQzfEj4iSr 1BhHEReqlF48TR9LgddX2/RSPZxNXLRSehE1dawFPgIMVd3wmhqPUXvrfuKjq1fjR4NVbQL+Afh7 vOJPDTYKfIr4znrpd9SmjAnipN/ebWxvqXbmAF8i3tVKL666j0ng28ABbW1pqab2Bb5OvLuVXmR1 HlcAC9rcxlKt7Q98lTimLb3Q6jYmgf8AXtT21pUaYB5xYmuM8ouuLmOc+HrvgR1sV6kx9gL+HHia 8ouv9BgDvogn/JTMTODDwIOUX4SlxmPAx4kgSukMEd8Z+CG5Tg5OAtcDZwLTO92IUtMdQnxMuIby i7PXYwz4J+CIbmw4aVDMAs4lfnNwEPcGJomfUvsQ8IIubTNp4CwA/pq423DpRdut8QTxyceReF2/ tFtb7ifwbeJGGKUXcLtjDXH77jcCM7q6haQEZgNvBf4NWEH5BT3VsQr4DnAOcRm0pA7MAt4E/Avx 0VkdzxFMEF99vpQ4u+9Hew3g8VizzAReSsTgzcDRxAm1Un+Pm4mLmW4nfqfv+8QPpIwVmo8qMgDN NETcduw4IganEB+rzSXOH/TSOLASuI/4ZeTvE59cbDlEUYMYgOabRhxnHwocS0ThGOBg4tBhlPZv RrKR+K2DtcDDwM3EYr+JuIJxNf4aUqMZgMEznTgsmEdE4JDWOIjYQxjdbkDssm87VgKPEL/C8xCx +FcSC9678g4QA5DHdOLwYFprTGfrLeEmiIU90RrjuNAlSZIkSZIkSZIkSZIkSZIkSZIkSZIkSZIk SZIkSZIkSZIkSZIkSZIkaarq/NuAw8CexA9YzgF+ifhxy5mtfzazNaaXmqBE/IbiutYYa/3vSmA5 8WOqY8B6YLLUBHelTgEYAV4IHA68EngJ8au2BwPziZ+6HmHrj1tOIyIhlTbJ1h9WnSB+Vn0t8Djx y8oPAXcDtwD3A6taf6a40gEYJRb8qcDxxMI/hPh5a9/ZNUg2AU8TMbgFuBH4ERGEsVKTKhGAEeAw 4HXAGcDJxDu8C16ZbCL2EH4CXAlcDTxIn/cM+hmAmcBxwHuAM4GDiN+rl7IbBx4B/hu4BFhMnEvo uX4EYDbxbv/rwOnAPn3670pNsxl4ElgEfIPYK3iml//BXi7EEWL3/neBNxHH9ZKm5mng+8AFxGFC Tw4NehGAIeBI4EPAe4H9e/DfkLJ4DPgm8BXgXmIvoWumdfPBiI/qzgW+ALwN2KvLjy9lM5vYk34D cT3BvcQ5g67oZgAOB/4S+GPgQDzOl7plCNgXOI24IO4u4mKjjnUjANOAtxDHKm8DZnThMSU93whw LPAq4krDB+jwkKDTAOxJHOv/LXHc77u+1FtDxB72G4gLiG4nriloSycBmAP8CfBnwLwOHkdSdbOB 1xLX0twEbGjnQdoNwH7Ap4HfIS7nldR/M4gThPsC1xPfP6iknQDsA3wOeB9eySeVNh04hnhTvoaK 3yuoGoC5wKeA38Jr96W6GAZeRnyb9lri48IpqRKAvYC/AD6M7/xS3QwDryAOya9lilcOTjUA04E/ BD6GH/NJdTWN+Er9BuA6pnATkqkG4F3AX+H1/FLdTQeOJq4RuHN3f3gqATgOOB84tLN5SeqTUeKc wE+AR3f1B3cXgPnAF4FTujMvSX2yL3E7vUXs4uPBXQVgGPgo8AG8957URAuIG5New04uGd5VAE4C PkN89CepeYaBI4gTgo/s6A/sLABzgM/irr/UdHOIN/Er2cHlwjvbtT8HOKuHk5LUP2cRa/p5dhSA /YD3E9/0k9R8exJrer/t/48dBeBs4vhf0uA4iVjbz7F9AOYT1/mP9GFCkvpnhFjb87f9h9sH4Azi F3okDZ7jiTX+rG0DMAq8Ha/1lwbVDGKNP3sPj20D8FLg1f2ekaS+ejWx1oHnBuDNbHd8IGngzCfW OrA1APPY7thA0sA6g9Z9PLcE4EjgJcWmI6mfXkKs+WcDcAJe8y9lMZdY8wwTVwmdgN/4k7IYJtb8 nsPE5YHHlp2PpD47FthvGFiIZ/+lbOYDC4eJH/X0xz2kXEaBww2AlNNzAiApn8OHiRsHSsrn4GHi lkGS8pkzTPzMsKR8ZhsAKa/ZQ8SdQr0DkJTPxiF28oMBkgaf1/9LiRkAKTEDICVmAKTEDICUmAGQ EjMAUmIGQErMAEiJGQApMQMgJWYApMQMgJSYAZASMwBSYgZASswASIkZACkxAyAlZgCkxAyAlJgB kBIzAFJiBkBKzABIiRkAKTEDICVmAKTEDICUmAGQEjMAUmIGQErMAEiJGQApMQMgJWYApMQMgJSY AZASMwBSYgZASswASIkZACmx6aUn0KYxYBGwrs1/fxg4HljQtRmpyVYDPwTWt/nvzwROB0a7NaF+ aWoAngL+AFgGDLXx748AF2IAFJYBHwUep/rraTNwIBEQA9Ank8CG1mjHRGtIEIu4k9fTBuI12Tie A5ASMwBSYgZASswASIkZACkxAyAlZgCkxAyAlJgBkBIzAFJiBkBKzABIiRkAKTEDICVmAKTEDICU mAGQEjMAUmIGQErMAEiJGQApMQMgJWYApMQMgJSYAZASMwBSYgZASswASIkZACkxAyAlZgCkxAyA lJgBkBIzAFJiBkBKzABIiRkAKTEDICVmAKTEDICUmAGQEjMAUmIGQErMAEiJGQApMQMgJWYApMQM gJSYAZASMwBSYgZASswASIkZACkxAyAlZgCkxAyAlJgBkBIzAFJiBkBKzABIiRkAKTEDICVmAKTE DICUmAGQEjMAUmIGQErMAEiJGQApMQMgJWYApMQMgJSYAZASMwBSYgZASswASIkZACkxAyAlZgCk xAyAlJgBkBIzAFJiBkBKzABIiRkAKTEDICVmAKTEDICUmAGQEjMAUmIGQErMAEiJGQApMQMgJWYA pMQMgJSYAZASMwBSYgZASswASIkZACkxAyAlZgCkxAyAlJgBkBIzAFJiBkBKzABIiRkAKTEDICVm AKTEDICUmAGQEjMAUmIGQErMAEiJGQApMQMgJWYApMQMgJSYAZASMwBSYgZASswASIkZACkxAyAl ZgCkxAyAlJgBkBIzAFJiBkBKzABIiRkAKTEDICVmAKTEDICUmAGQEjMAUmIGQErMAEiJGQApMQMg JWYApMQMgJSYAZASMwBSYgZASswASIkZACkxAyAlZgCkxAyAlJgBkBIzAFJiBkBKzABIiRkAKTED ICVmAKTEDICUmAGQEmtqAIZKT0DaTiNfk8PAROlJtGETsLn0JKSWzcRrsmkmhoF1pWfRhvU0M1wa TBPEa7Jp1g0DY6Vn0YZ1GADVxwTNfCMdGwaeLD2LNqwExktPQmoZJ16TTfPkMPBg6Vm04WGaueei wTRGvCab5sFhYEnpWbThYdwDUH2M08wALBkGbqVZxy/rgDtLT0Lazp00bx3dOgxcDzxVeDJVrCCi JdXJrcRrsymeAq7fcg7g9rJzqeRWYFnpSUjbWUaz3phup3UOYDWwCJgsO58pmQSuAtaUnoi0nTXE a7Mp62gRsHrLpcCLaMa76sPEXKU6WkQzTgYuo7WOtgTgLuCyYtOZusuAe0pPQtqJe2jOOroLtgZg HPg6sLzUjKZgGTFHP/5TXW1ZR3Xem17ONuto228D3gBcTD2PYSaBfwYWl56ItBuLiddqXdfRxcRa B54bgE3ARcB1fZ7UVFwHfIVmfuNKuWwiXqt1XUcXsc062v5+AEuBPwV+3sdJ7c69xJyWlp6INEVb 1tG9pSeyjZ9TYR29gzhW2Fx4LAPe3sGT3pk9gK/V4Pk56jHuAObTfW8nXsOln99yYk1P2TDwQeLK plKTfgp4P725a5EBcGw7ehWAYeI1/FTB57aCWMuV19EI8D7g/gKTvg84j1iovWAAHNuOXgUA4rV2 HvGa7vfzup9YwyPtTn4IOIW4aGCiDxOeIK6mOpne3mPNADi2Hb0MAMRr+WTitd2vdbSIWLtdWUcH Ap8HHiU+Suj2hCdbj/351n+r1wyAY9vR6wBs0eh1NAM4CbgAeKhLT2Cy9Vjntx57RrcnvRMGwLHt 6FcAYOs6Op/ur6MLqLiOpleY+Abgp8BNwFeBdwGvA44E5lV4rC23T7oHuBr4d+BneIWfctjZOnox MJepn/faRJzgu5et6+gOKq6jKgHYYhy4GbgNeAGwADgBOA44iHgS84DZrT//TGuiK4kvSiwmrkR6 kPgmYh2vmJJ6bRy4hVhHc4DD2LqODmbX6+gRtq6jJcDTtHmT3HYCsMVEazIriZrtAexJnHHcAxht /bkx4sluJO5C4tV80laTbF1HNxNrcia7Xkfr6dIecycB2N447sZLndpEH+930dSfBpPUBQZASswA SIkZACkxAyAlZgCkxAyAlJgBkBIzAFJiBkBKzABIiRkAKTEDICVmAKTEDICUmAGQEjMAUmIGQErM AEiJGQApsW7eFFT1sBG4BLiV7gV+EngF8B46+J051Y8BGDzjwHdbo5veAbwbAzBQPAQYPEP05odV e/W4KsgASIkZACkxAyAlZgCkxAyAlJgBkBIzAFJiBkBKzABIiRkAKTEDICVmAKTEDICUmAGQEjMA UmIGQErMAEiJGQApMQMgJWYApMQMgJSYAZASMwBSYgZASswASIkZACkxAyAlZgCkxAyAlJgBkBIz AFJiBkBKzABIiRkAKTEDICVmAKTEDICUmAGQEjMAUmIGQErMAEiJGQApMQMgJWYApMQMgJSYAZAS MwBSYgZASswASIkZACkxAyAlZgCkxAyAlJgBkBIzAFJiBkBKzABIiRkAKTEDICVmAKTEDICUmAGQ EjMAUmIGQErMAEiJGQApMQMgJWYApMQMgJSYAZASMwBSYgZASswASIkZACkxAyAlZgCkxAyAlJgB kBIzAFJiBkBKzABIiRkAKTEDICVmAKTEDICUmAGQEjMAUmIGQErMAEiJGQApMQMgJWYApMQMgJSY AZASMwBSYgZASswASIkZACkxAyAlZgCkxAyAlJgBkBIzAFJiBkBKzABIiRkAKTEDICVmAKTEDICU mAGQEjMAUmIGQErMAEiJGQApMQMgJWYApMQMgJSYAZASMwBSYgZASswASIkZACkxAyAlZgCkxAyA lJgBkBIzAFJiBkBKzABIiRkAKTEDICVmAKTEDICUmAGQEjMAUmIGQErMAEiJGQApMQMgJWYApMQM gJSYAZASMwBSYgZASswASIkZACkxAyAlZgCkxAyAlJgBkBIzAFJiBkBKzABIiRkAKTEDICVmAKTE DICUmAGQEjMAUmIGQErMAEiJGQApMQMgJWYApMQMgJSYAZASMwBSYgZASswASIkZACkxAyAlZgCk xAyAlJgBkBIzAFJiBkBKzABIiRkAKTEDICVmAKTEDICUmAGQEjMAUmIGQErMAEiJGQApMQMgJWYA pMQMgJSYAZASMwBSYgZASswASIkZACkxAyAlZgCkxAyAlJgBkBIzAFJiBkBKzABIiRkAKTEDICVm AKTEDICUmAGQEjMAUmIGQErMAEiJGQApMQMgJWYApMQMgJSYAZASMwBSYgZASswASIkZACkxAyAl ZgCkxAyAlJgBkBIzAFJiBkBKzABIiRkAKTEDICVmAKTEDICUmAGQEjMAUmIGQErMAEiJGQApMQMg JWYApMQMgJSYAZASMwBSYgZASswASIkZACkxAyAlZgCkxAyAlJgBkBIzAFJiBkBKzABIiRkAKTED ICVmAKTEDICUmAGQEjMAUmKZA7C59AR6ZDO9eW69etw6GOTntktZAzAJrC89iR6ZBDb04HHXtx57 EK1jcJ/bLmUNwASwtvQkemSCeEF32xiwqQePWwfPMLjPbZeyBgBgVekJ9Mg4vXluq1qPPYhWAhtL T6KEzAFYSm92lUtbBfyiB4/7JIMbzaXEHk46mQNwP4N5GPAQsUvbbWtbjz1oJonXQkqZA7AEeKT0 JHrgTmBNDx53TeuxB81q4PbSkyglcwCeAm4oPYku2wgspjdntCeBGxm8w6YHgLtLT6KUzAEYB37E YJ38eYIIQK/cCDzew8cv4RrizSClzAEAuBq4t/Qkuugn9PZ4dgmxYAbF08DlxEenKWUPwMPEC2AQ bAS+R2+uAdhiPXAZg3MR1Q3AT0tPQmUdS3wMtLnh48fAAV3eNjuyP7EXUPr5djrWAed1eduogaYB f0P5F2QnYwz4zW5vmF34bWKPo/Tz7mRcBezd7Q2jZjqK+Cio9Iuy3XE5MLfrW2Xn5gP/24Pn0a+x Aji761tFjXYecQFN6Rdn1bGaMi/mtxELqfTzrzomgS8AI93fJGqyUeBC4oxw6RdplRfzRa2599sM 4HPEl2hKb4cq4wfAgh5sDw2A+cC/Egur9At1KuMK4OCebImp2Re4dAfzquu4mTjpK+3UAuIEUekX 6+7GrcAre7QNqjicuJ6i9PbY3bgP+JUebQMNmKOB6yn/ot3ZeAQ4s2fPvrqTgJ9RfrvsbCwH3tmz Z6+BdCLwQ+p3OPAA8GvU7yKu04ld7NLbZ/txD/Cr1G97qQEOAb5MfBW29At5M3AtcCow1Msn3YGj iSsF63BicII4lDuxp89YA2828HvAMsq9mDcC3wKO7PFz7Yb9gQsoG81nWnM4sMfPVUlMI3ZxL6f/ L+xlwCeBfXr+LLtnNvARYve7n4dQW74O/QFgVs+fpdJ5IXH8fRVx+W0vX8yriHf91wDT+/HkumwI eCnwJeBRehuCceJTkY8RH4vW9RBJA2IecC5xOexquvfingAeA75JnOWf3a8n1EMzgJOJXfIH6O53 CNYBtwGfAA7DhV+ZG6wz84DjgDcCrwUWEnsJVS4zXUdcUnsX8D/E3sWd9PZrvSXsQWyf1xPb6xhg P2JXfaqvw03ErcmWEfc+WER8M3E5Se/r3ykD0B3TiRi8iDjr/MvEBUWHEF/SmUW8E64nTlCtAB4k 3hFvI76XvoTYm9jc36kXMZs4QXdsaxxOvIPPJ7bVLLb+dsPTxHUPS4ibt9wI3EHc/WiQ7uZUxP8D 0qyxWY8IWZgAAAAASUVORK5CYII= "
       style="image-rendering:optimizeSpeed"
       preserveAspectRatio="none"
       height="330.12173"
       width="118.03235"
       inkscape:export-xdpi="109.05068"
       inkscape:export-ydpi="109.05068" />
    <image
       width="118.03235"
       height="330.12173"
       preserveAspectRatio="none"
       style="image-rendering:optimizeSpeed"
       xlink:href="data:image/png;base64,iVBORw0KGgoAAAANSUhEUgAAAQAAAALMCAYAAAALsGw0AAAABHNCSVQICAgIfAhkiAAAGrxJREFU eJzt3XmwnWV9wPHvvQk35CYYE5ZAWRMEpSrKDi5oEUVEUdSZVltKXUY7dmpb21o705nWdrRqbauA U3Q62mIVau1oW6QgqRUroEDYZRMIARIWIQshN8vNvekfvxMSQpb7nu153/P7fmaecQbD4TlvzvM9 7/ue97xnCA2aGcA84ABgIXB4638XtP75bGDWNgNg7TbjGWAFsAR4YJuxvPXPN/TpeagPhkpPQB2b DryQWOjHAccDxwD7A6OtMb3Nx94EjLXGY8AtwI3AYuA+YFXrz6ihDEAzDQF7AycCZwCnEO/yc2h/ sU/VJmA1sYdwHXAlcD3wFDDZ4/+2uswANMso8HLgzcTCfxmwV9EZwRrgTuAKIga3EYcSkrpkFrHo LwGeIN5pN9dsTAK/AL4FnEX5MEmNtxfwVuDbwErKL/KpjtXAd4FziMMSSRXsAZxKLPzVlF/Q7Y41 wH8CpwMjXd1C0oA6DPg08bFb6QXcrfEE8HfAEXjeSdqhUeC9wA3ABOUXbbfHJHGC8IN4fkB6jgOB LwJPU36h9nqsBf6R+NhSSm0IOBm4isF819/V3sC1wBuA4Y63otRAI8B5xBV1pRdkqfEI8FG2XpIs pTAKfJxmfbTXq/EM8BnicmZp4M0BPkW88EsvvrqMDcBFwH4dbFep9vYBLgTWU37R1W1sAi4FDml7 60o1Nhf4MjBO+cVW1zEJfIf4VEQaGLOAzxK7uqUXWd3HJHAxsbckNd4I8Ani8+/Si6spYxw4H3hB G9tbqo1h4EN4tr+dsR74JHGHI6mRTgMepvxiaupYBZxbeatLNbAA+DHlF1HTxz3ACRW3vVTULOKM fx1v3NHEcTlxj0N12bTSExhAQ8AHgD/C78B3y0IiplfjfQdVcy8H7qb8u+agjV8Qt0WTamtPYte/ 9GIZ1HElsO+U/zakPjsbP/Lr5dgI/D7eVUg1NB/4AeUXyaCPu4nDLHWBN2PonncCryk9iQReDLyf 3v8ASgoGoDvmA79B3M1XvXcO8aMo6pAB6I63EL/Lp/44lLiBqh9jd8gAdG5v4nJVr1nvr3cBR5We RNMZgM6dRtzYU/21EHg3fiLQEQPQmRnER38zS08kqbPwNmIdMQCdWQi8tvQkEjuK+Gl0tckAdOY0 4KDSk0hsFnEC1k9f2mQA2jcbOBPPRJf2eryRaNsMQPuOwI/+6uBQ4FWlJ9FUBqB9x+KNK+tgBDgR X8ttcaO1ZxpwPF6OWhfHEbddV0UGoD1ziT0A1cOLiFuwqSID0J6F+PPWdTIXz8e0xQC052XEb/yp HqYTfye+nityg7XnUPzsuW4OI351WRUYgOr2wM+d6+gQDEBlBqC6WcQegOplP+KbmarAAFQ3Czi4 9CT0PKO4Z1aZAahub/zRyjqaCRxQehJNYwCqm40XANXRdOLvRhUYgOpG8QtAdTSEJwErMwDVjeIe QF0ZgIoMQHWzcA+grgxARQaguhkYgLraE+8RWIkBqG4cf6G2rjYSvx6kKTIA1a0FNpWehHZorPQE msYAVDcGTJSehHbIAFRkAKozAPW0GQNQmQGozkOAepog/m5UgQGobgW+0OpoPfBE6Uk0jQGobg2w rPQk9DxjwNLSk2gaA1DdWnyh1dEK3AOozABUtwF4qPQk9DwP4UnAygxAe5biJwF1sxQDUJkBaM9d xLkA1cNm4E78dKYyA9Cee/AwoE5WAYtLT6KJDEB7VgA3l56EnrUUuLf0JJrIALRnI3AjfimoLhYT UVZFBqB9i4GVpSchJoAbiG9pqiID0L67gdtLT0IsB64pPYmmMgDtWwlcgd8/L+3HwH2lJ9FUBqAz VwGPl55EYhuA7xHfA1AbDEBn7gauKz2JxO4H/q/0JJrMAHRmDLiM+FRA/XclfjGrIwagc1cAt5ae REKPAt/CS7I7YgA6txz4Bl6G2m//BdxUehJNZwC647vAHaUnkcjjwMV46NUxA9AdS4FLcHe0X75H XIkp1cZhxBVpmx09HQ8BJ0/tr0S74y/cdM8qYB1wBjBSeC6DagL4AnApXoClGppNHAqUfpcc1HEN cNCU/zakAk4izgmUXiyDNlYD767w96Ap8BCg+x4D9gBOxe3bLZuBrwEX4setaoC5eCjQzfEj4iSr 1BhHEReqlF48TR9LgddX2/RSPZxNXLRSehE1dawFPgIMVd3wmhqPUXvrfuKjq1fjR4NVbQL+Afh7 vOJPDTYKfIr4znrpd9SmjAnipN/ebWxvqXbmAF8i3tVKL666j0ng28ABbW1pqab2Bb5OvLuVXmR1 HlcAC9rcxlKt7Q98lTimLb3Q6jYmgf8AXtT21pUaYB5xYmuM8ouuLmOc+HrvgR1sV6kx9gL+HHia 8ouv9BgDvogn/JTMTODDwIOUX4SlxmPAx4kgSukMEd8Z+CG5Tg5OAtcDZwLTO92IUtMdQnxMuIby i7PXYwz4J+CIbmw4aVDMAs4lfnNwEPcGJomfUvsQ8IIubTNp4CwA/pq423DpRdut8QTxyceReF2/ tFtb7ifwbeJGGKUXcLtjDXH77jcCM7q6haQEZgNvBf4NWEH5BT3VsQr4DnAOcRm0pA7MAt4E/Avx 0VkdzxFMEF99vpQ4u+9Hew3g8VizzAReSsTgzcDRxAm1Un+Pm4mLmW4nfqfv+8QPpIwVmo8qMgDN NETcduw4IganEB+rzSXOH/TSOLASuI/4ZeTvE59cbDlEUYMYgOabRhxnHwocS0ThGOBg4tBhlPZv RrKR+K2DtcDDwM3EYr+JuIJxNf4aUqMZgMEznTgsmEdE4JDWOIjYQxjdbkDssm87VgKPEL/C8xCx +FcSC9678g4QA5DHdOLwYFprTGfrLeEmiIU90RrjuNAlSZIkSZIkSZIkSZIkSZIkSZIkSZIkSZIk SZIkSZIkSZIkSZIkSZIkaarq/NuAw8CexA9YzgF+ifhxy5mtfzazNaaXmqBE/IbiutYYa/3vSmA5 8WOqY8B6YLLUBHelTgEYAV4IHA68EngJ8au2BwPziZ+6HmHrj1tOIyIhlTbJ1h9WnSB+Vn0t8Djx y8oPAXcDtwD3A6taf6a40gEYJRb8qcDxxMI/hPh5a9/ZNUg2AU8TMbgFuBH4ERGEsVKTKhGAEeAw 4HXAGcDJxDu8C16ZbCL2EH4CXAlcDTxIn/cM+hmAmcBxwHuAM4GDiN+rl7IbBx4B/hu4BFhMnEvo uX4EYDbxbv/rwOnAPn3670pNsxl4ElgEfIPYK3iml//BXi7EEWL3/neBNxHH9ZKm5mng+8AFxGFC Tw4NehGAIeBI4EPAe4H9e/DfkLJ4DPgm8BXgXmIvoWumdfPBiI/qzgW+ALwN2KvLjy9lM5vYk34D cT3BvcQ5g67oZgAOB/4S+GPgQDzOl7plCNgXOI24IO4u4mKjjnUjANOAtxDHKm8DZnThMSU93whw LPAq4krDB+jwkKDTAOxJHOv/LXHc77u+1FtDxB72G4gLiG4nriloSycBmAP8CfBnwLwOHkdSdbOB 1xLX0twEbGjnQdoNwH7Ap4HfIS7nldR/M4gThPsC1xPfP6iknQDsA3wOeB9eySeVNh04hnhTvoaK 3yuoGoC5wKeA38Jr96W6GAZeRnyb9lri48IpqRKAvYC/AD6M7/xS3QwDryAOya9lilcOTjUA04E/ BD6GH/NJdTWN+Er9BuA6pnATkqkG4F3AX+H1/FLdTQeOJq4RuHN3f3gqATgOOB84tLN5SeqTUeKc wE+AR3f1B3cXgPnAF4FTujMvSX2yL3E7vUXs4uPBXQVgGPgo8AG8957URAuIG5New04uGd5VAE4C PkN89CepeYaBI4gTgo/s6A/sLABzgM/irr/UdHOIN/Er2cHlwjvbtT8HOKuHk5LUP2cRa/p5dhSA /YD3E9/0k9R8exJrer/t/48dBeBs4vhf0uA4iVjbz7F9AOYT1/mP9GFCkvpnhFjb87f9h9sH4Azi F3okDZ7jiTX+rG0DMAq8Ha/1lwbVDGKNP3sPj20D8FLg1f2ekaS+ejWx1oHnBuDNbHd8IGngzCfW OrA1APPY7thA0sA6g9Z9PLcE4EjgJcWmI6mfXkKs+WcDcAJe8y9lMZdY8wwTVwmdgN/4k7IYJtb8 nsPE5YHHlp2PpD47FthvGFiIZ/+lbOYDC4eJH/X0xz2kXEaBww2AlNNzAiApn8OHiRsHSsrn4GHi lkGS8pkzTPzMsKR8ZhsAKa/ZQ8SdQr0DkJTPxiF28oMBkgaf1/9LiRkAKTEDICVmAKTEDICUmAGQ EjMAUmIGQErMAEiJGQApMQMgJWYApMQMgJSYAZASMwBSYgZASswASIkZACkxAyAlZgCkxAyAlJgB kBIzAFJiBkBKzABIiRkAKTEDICVmAKTEDICUmAGQEjMAUmIGQErMAEiJGQApMQMgJWYApMQMgJSY AZASMwBSYgZASswASIkZACmx6aUn0KYxYBGwrs1/fxg4HljQtRmpyVYDPwTWt/nvzwROB0a7NaF+ aWoAngL+AFgGDLXx748AF2IAFJYBHwUep/rraTNwIBEQA9Ank8CG1mjHRGtIEIu4k9fTBuI12Tie A5ASMwBSYgZASswASIkZACkxAyAlZgCkxAyAlJgBkBIzAFJiBkBKzABIiRkAKTEDICVmAKTEDICU mAGQEjMAUmIGQErMAEiJGQApMQMgJWYApMQMgJSYAZASMwBSYgZASswASIkZACkxAyAlZgCkxAyA lJgBkBIzAFJiBkBKzABIiRkAKTEDICVmAKTEDICUmAGQEjMAUmIGQErMAEiJGQApMQMgJWYApMQM gJSYAZASMwBSYgZASswASIkZACkxAyAlZgCkxAyAlJgBkBIzAFJiBkBKzABIiRkAKTEDICVmAKTE DICUmAGQEjMAUmIGQErMAEiJGQApMQMgJWYApMQMgJSYAZASMwBSYgZASswASIkZACkxAyAlZgCk xAyAlJgBkBIzAFJiBkBKzABIiRkAKTEDICVmAKTEDICUmAGQEjMAUmIGQErMAEiJGQApMQMgJWYA pMQMgJSYAZASMwBSYgZASswASIkZACkxAyAlZgCkxAyAlJgBkBIzAFJiBkBKzABIiRkAKTEDICVm AKTEDICUmAGQEjMAUmIGQErMAEiJGQApMQMgJWYApMQMgJSYAZASMwBSYgZASswASIkZACkxAyAl ZgCkxAyAlJgBkBIzAFJiBkBKzABIiRkAKTEDICVmAKTEDICUmAGQEjMAUmIGQErMAEiJGQApMQMg JWYApMQMgJSYAZASMwBSYgZASswASIkZACkxAyAlZgCkxAyAlJgBkBIzAFJiBkBKzABIiRkAKTED ICVmAKTEDICUmAGQEmtqAIZKT0DaTiNfk8PAROlJtGETsLn0JKSWzcRrsmkmhoF1pWfRhvU0M1wa TBPEa7Jp1g0DY6Vn0YZ1GADVxwTNfCMdGwaeLD2LNqwExktPQmoZJ16TTfPkMPBg6Vm04WGaueei wTRGvCab5sFhYEnpWbThYdwDUH2M08wALBkGbqVZxy/rgDtLT0Lazp00bx3dOgxcDzxVeDJVrCCi JdXJrcRrsymeAq7fcg7g9rJzqeRWYFnpSUjbWUaz3phup3UOYDWwCJgsO58pmQSuAtaUnoi0nTXE a7Mp62gRsHrLpcCLaMa76sPEXKU6WkQzTgYuo7WOtgTgLuCyYtOZusuAe0pPQtqJe2jOOroLtgZg HPg6sLzUjKZgGTFHP/5TXW1ZR3Xem17ONuto228D3gBcTD2PYSaBfwYWl56ItBuLiddqXdfRxcRa B54bgE3ARcB1fZ7UVFwHfIVmfuNKuWwiXqt1XUcXsc062v5+AEuBPwV+3sdJ7c69xJyWlp6INEVb 1tG9pSeyjZ9TYR29gzhW2Fx4LAPe3sGT3pk9gK/V4Pk56jHuAObTfW8nXsOln99yYk1P2TDwQeLK plKTfgp4P725a5EBcGw7ehWAYeI1/FTB57aCWMuV19EI8D7g/gKTvg84j1iovWAAHNuOXgUA4rV2 HvGa7vfzup9YwyPtTn4IOIW4aGCiDxOeIK6mOpne3mPNADi2Hb0MAMRr+WTitd2vdbSIWLtdWUcH Ap8HHiU+Suj2hCdbj/351n+r1wyAY9vR6wBs0eh1NAM4CbgAeKhLT2Cy9Vjntx57RrcnvRMGwLHt 6FcAYOs6Op/ur6MLqLiOpleY+Abgp8BNwFeBdwGvA44E5lV4rC23T7oHuBr4d+BneIWfctjZOnox MJepn/faRJzgu5et6+gOKq6jKgHYYhy4GbgNeAGwADgBOA44iHgS84DZrT//TGuiK4kvSiwmrkR6 kPgmYh2vmJJ6bRy4hVhHc4DD2LqODmbX6+gRtq6jJcDTtHmT3HYCsMVEazIriZrtAexJnHHcAxht /bkx4sluJO5C4tV80laTbF1HNxNrcia7Xkfr6dIecycB2N447sZLndpEH+930dSfBpPUBQZASswA SIkZACkxAyAlZgCkxAyAlJgBkBIzAFJiBkBKzABIiRkAKTEDICVmAKTEDICUmAGQEjMAUmIGQErM AEiJGQApsW7eFFT1sBG4BLiV7gV+EngF8B46+J051Y8BGDzjwHdbo5veAbwbAzBQPAQYPEP05odV e/W4KsgASIkZACkxAyAlZgCkxAyAlJgBkBIzAFJiBkBKzABIiRkAKTEDICVmAKTEDICUmAGQEjMA UmIGQErMAEiJGQApMQMgJWYApMQMgJSYAZASMwBSYgZASswASIkZACkxAyAlZgCkxAyAlJgBkBIz AFJiBkBKzABIiRkAKTEDICVmAKTEDICUmAGQEjMAUmIGQErMAEiJGQApMQMgJWYApMQMgJSYAZAS MwBSYgZASswASIkZACkxAyAlZgCkxAyAlJgBkBIzAFJiBkBKzABIiRkAKTEDICVmAKTEDICUmAGQ EjMAUmIGQErMAEiJGQApMQMgJWYApMQMgJSYAZASMwBSYgZASswASIkZACkxAyAlZgCkxAyAlJgB kBIzAFJiBkBKzABIiRkAKTEDICVmAKTEDICUmAGQEjMAUmIGQErMAEiJGQApMQMgJWYApMQMgJSY AZASMwBSYgZASswASIkZACkxAyAlZgCkxAyAlJgBkBIzAFJiBkBKzABIiRkAKTEDICVmAKTEDICU mAGQEjMAUmIGQErMAEiJGQApMQMgJWYApMQMgJSYAZASMwBSYgZASswASIkZACkxAyAlZgCkxAyA lJgBkBIzAFJiBkBKzABIiRkAKTEDICVmAKTEDICUmAGQEjMAUmIGQErMAEiJGQApMQMgJWYApMQM gJSYAZASMwBSYgZASswASIkZACkxAyAlZgCkxAyAlJgBkBIzAFJiBkBKzABIiRkAKTEDICVmAKTE DICUmAGQEjMAUmIGQErMAEiJGQApMQMgJWYApMQMgJSYAZASMwBSYgZASswASIkZACkxAyAlZgCk xAyAlJgBkBIzAFJiBkBKzABIiRkAKTEDICVmAKTEDICUmAGQEjMAUmIGQErMAEiJGQApMQMgJWYA pMQMgJSYAZASMwBSYgZASswASIkZACkxAyAlZgCkxAyAlJgBkBIzAFJiBkBKzABIiRkAKTEDICVm AKTEDICUmAGQEjMAUmIGQErMAEiJGQApMQMgJWYApMQMgJSYAZASMwBSYgZASswASIkZACkxAyAl ZgCkxAyAlJgBkBIzAFJiBkBKzABIiRkAKTEDICVmAKTEDICUmAGQEjMAUmIGQErMAEiJGQApMQMg JWYApMQMgJSYAZASMwBSYgZASswASIkZACkxAyAlZgCkxAyAlJgBkBIzAFJiBkBKzABIiRkAKTED ICVmAKTEDICUmAGQEjMAUmKZA7C59AR6ZDO9eW69etw6GOTntktZAzAJrC89iR6ZBDb04HHXtx57 EK1jcJ/bLmUNwASwtvQkemSCeEF32xiwqQePWwfPMLjPbZeyBgBgVekJ9Mg4vXluq1qPPYhWAhtL T6KEzAFYSm92lUtbBfyiB4/7JIMbzaXEHk46mQNwP4N5GPAQsUvbbWtbjz1oJonXQkqZA7AEeKT0 JHrgTmBNDx53TeuxB81q4PbSkyglcwCeAm4oPYku2wgspjdntCeBGxm8w6YHgLtLT6KUzAEYB37E YJ38eYIIQK/cCDzew8cv4RrizSClzAEAuBq4t/Qkuugn9PZ4dgmxYAbF08DlxEenKWUPwMPEC2AQ bAS+R2+uAdhiPXAZg3MR1Q3AT0tPQmUdS3wMtLnh48fAAV3eNjuyP7EXUPr5djrWAed1eduogaYB f0P5F2QnYwz4zW5vmF34bWKPo/Tz7mRcBezd7Q2jZjqK+Cio9Iuy3XE5MLfrW2Xn5gP/24Pn0a+x Aji761tFjXYecQFN6Rdn1bGaMi/mtxELqfTzrzomgS8AI93fJGqyUeBC4oxw6RdplRfzRa2599sM 4HPEl2hKb4cq4wfAgh5sDw2A+cC/Egur9At1KuMK4OCebImp2Re4dAfzquu4mTjpK+3UAuIEUekX 6+7GrcAre7QNqjicuJ6i9PbY3bgP+JUebQMNmKOB6yn/ot3ZeAQ4s2fPvrqTgJ9RfrvsbCwH3tmz Z6+BdCLwQ+p3OPAA8GvU7yKu04ld7NLbZ/txD/Cr1G97qQEOAb5MfBW29At5M3AtcCow1Msn3YGj iSsF63BicII4lDuxp89YA2828HvAMsq9mDcC3wKO7PFz7Yb9gQsoG81nWnM4sMfPVUlMI3ZxL6f/ L+xlwCeBfXr+LLtnNvARYve7n4dQW74O/QFgVs+fpdJ5IXH8fRVx+W0vX8yriHf91wDT+/HkumwI eCnwJeBRehuCceJTkY8RH4vW9RBJA2IecC5xOexquvfingAeA75JnOWf3a8n1EMzgJOJXfIH6O53 CNYBtwGfAA7DhV+ZG6wz84DjgDcCrwUWEnsJVS4zXUdcUnsX8D/E3sWd9PZrvSXsQWyf1xPb6xhg P2JXfaqvw03ErcmWEfc+WER8M3E5Se/r3ykD0B3TiRi8iDjr/MvEBUWHEF/SmUW8E64nTlCtAB4k 3hFvI76XvoTYm9jc36kXMZs4QXdsaxxOvIPPJ7bVLLb+dsPTxHUPS4ibt9wI3EHc/WiQ7uZUxP8D 0qyxWY8IWZgAAAAASUVORK5CYII= "
       id="image4783"
       x="396.4071"
       y="444.85452"
       inkscape:export-xdpi="109.05068"
       inkscape:export-ydpi="109.05068" />
    <image
       width="118.03235"
       height="330.12173"
       preserveAspectRatio="none"
       style="image-rendering:optimizeSpeed"
       xlink:href="data:image/png;base64,iVBORw0KGgoAAAANSUhEUgAAAQAAAALMCAYAAAALsGw0AAAABHNCSVQICAgIfAhkiAAAGrxJREFU eJzt3XmwnWV9wPHvvQk35CYYE5ZAWRMEpSrKDi5oEUVEUdSZVltKXUY7dmpb21o705nWdrRqbauA U3Q62mIVau1oW6QgqRUroEDYZRMIARIWIQshN8vNvekfvxMSQpb7nu153/P7fmaecQbD4TlvzvM9 7/ue97xnCA2aGcA84ABgIXB4638XtP75bGDWNgNg7TbjGWAFsAR4YJuxvPXPN/TpeagPhkpPQB2b DryQWOjHAccDxwD7A6OtMb3Nx94EjLXGY8AtwI3AYuA+YFXrz6ihDEAzDQF7AycCZwCnEO/yc2h/ sU/VJmA1sYdwHXAlcD3wFDDZ4/+2uswANMso8HLgzcTCfxmwV9EZwRrgTuAKIga3EYcSkrpkFrHo LwGeIN5pN9dsTAK/AL4FnEX5MEmNtxfwVuDbwErKL/KpjtXAd4FziMMSSRXsAZxKLPzVlF/Q7Y41 wH8CpwMjXd1C0oA6DPg08bFb6QXcrfEE8HfAEXjeSdqhUeC9wA3ABOUXbbfHJHGC8IN4fkB6jgOB LwJPU36h9nqsBf6R+NhSSm0IOBm4isF819/V3sC1wBuA4Y63otRAI8B5xBV1pRdkqfEI8FG2XpIs pTAKfJxmfbTXq/EM8BnicmZp4M0BPkW88EsvvrqMDcBFwH4dbFep9vYBLgTWU37R1W1sAi4FDml7 60o1Nhf4MjBO+cVW1zEJfIf4VEQaGLOAzxK7uqUXWd3HJHAxsbckNd4I8Ani8+/Si6spYxw4H3hB G9tbqo1h4EN4tr+dsR74JHGHI6mRTgMepvxiaupYBZxbeatLNbAA+DHlF1HTxz3ACRW3vVTULOKM fx1v3NHEcTlxj0N12bTSExhAQ8AHgD/C78B3y0IiplfjfQdVcy8H7qb8u+agjV8Qt0WTamtPYte/ 9GIZ1HElsO+U/zakPjsbP/Lr5dgI/D7eVUg1NB/4AeUXyaCPu4nDLHWBN2PonncCryk9iQReDLyf 3v8ASgoGoDvmA79B3M1XvXcO8aMo6pAB6I63EL/Lp/44lLiBqh9jd8gAdG5v4nJVr1nvr3cBR5We RNMZgM6dRtzYU/21EHg3fiLQEQPQmRnER38zS08kqbPwNmIdMQCdWQi8tvQkEjuK+Gl0tckAdOY0 4KDSk0hsFnEC1k9f2mQA2jcbOBPPRJf2eryRaNsMQPuOwI/+6uBQ4FWlJ9FUBqB9x+KNK+tgBDgR X8ttcaO1ZxpwPF6OWhfHEbddV0UGoD1ziT0A1cOLiFuwqSID0J6F+PPWdTIXz8e0xQC052XEb/yp HqYTfye+nityg7XnUPzsuW4OI351WRUYgOr2wM+d6+gQDEBlBqC6WcQegOplP+KbmarAAFQ3Czi4 9CT0PKO4Z1aZAahub/zRyjqaCRxQehJNYwCqm40XANXRdOLvRhUYgOpG8QtAdTSEJwErMwDVjeIe QF0ZgIoMQHWzcA+grgxARQaguhkYgLraE+8RWIkBqG4cf6G2rjYSvx6kKTIA1a0FNpWehHZorPQE msYAVDcGTJSehHbIAFRkAKozAPW0GQNQmQGozkOAepog/m5UgQGobgW+0OpoPfBE6Uk0jQGobg2w rPQk9DxjwNLSk2gaA1DdWnyh1dEK3AOozABUtwF4qPQk9DwP4UnAygxAe5biJwF1sxQDUJkBaM9d xLkA1cNm4E78dKYyA9Cee/AwoE5WAYtLT6KJDEB7VgA3l56EnrUUuLf0JJrIALRnI3AjfimoLhYT UVZFBqB9i4GVpSchJoAbiG9pqiID0L67gdtLT0IsB64pPYmmMgDtWwlcgd8/L+3HwH2lJ9FUBqAz VwGPl55EYhuA7xHfA1AbDEBn7gauKz2JxO4H/q/0JJrMAHRmDLiM+FRA/XclfjGrIwagc1cAt5ae REKPAt/CS7I7YgA6txz4Bl6G2m//BdxUehJNZwC647vAHaUnkcjjwMV46NUxA9AdS4FLcHe0X75H XIkp1cZhxBVpmx09HQ8BJ0/tr0S74y/cdM8qYB1wBjBSeC6DagL4AnApXoClGppNHAqUfpcc1HEN cNCU/zakAk4izgmUXiyDNlYD767w96Ap8BCg+x4D9gBOxe3bLZuBrwEX4setaoC5eCjQzfEj4iSr 1BhHEReqlF48TR9LgddX2/RSPZxNXLRSehE1dawFPgIMVd3wmhqPUXvrfuKjq1fjR4NVbQL+Afh7 vOJPDTYKfIr4znrpd9SmjAnipN/ebWxvqXbmAF8i3tVKL666j0ng28ABbW1pqab2Bb5OvLuVXmR1 HlcAC9rcxlKt7Q98lTimLb3Q6jYmgf8AXtT21pUaYB5xYmuM8ouuLmOc+HrvgR1sV6kx9gL+HHia 8ouv9BgDvogn/JTMTODDwIOUX4SlxmPAx4kgSukMEd8Z+CG5Tg5OAtcDZwLTO92IUtMdQnxMuIby i7PXYwz4J+CIbmw4aVDMAs4lfnNwEPcGJomfUvsQ8IIubTNp4CwA/pq423DpRdut8QTxyceReF2/ tFtb7ifwbeJGGKUXcLtjDXH77jcCM7q6haQEZgNvBf4NWEH5BT3VsQr4DnAOcRm0pA7MAt4E/Avx 0VkdzxFMEF99vpQ4u+9Hew3g8VizzAReSsTgzcDRxAm1Un+Pm4mLmW4nfqfv+8QPpIwVmo8qMgDN NETcduw4IganEB+rzSXOH/TSOLASuI/4ZeTvE59cbDlEUYMYgOabRhxnHwocS0ThGOBg4tBhlPZv RrKR+K2DtcDDwM3EYr+JuIJxNf4aUqMZgMEznTgsmEdE4JDWOIjYQxjdbkDssm87VgKPEL/C8xCx +FcSC9678g4QA5DHdOLwYFprTGfrLeEmiIU90RrjuNAlSZIkSZIkSZIkSZIkSZIkSZIkSZIkSZIk SZIkSZIkSZIkSZIkSZIkaarq/NuAw8CexA9YzgF+ifhxy5mtfzazNaaXmqBE/IbiutYYa/3vSmA5 8WOqY8B6YLLUBHelTgEYAV4IHA68EngJ8au2BwPziZ+6HmHrj1tOIyIhlTbJ1h9WnSB+Vn0t8Djx y8oPAXcDtwD3A6taf6a40gEYJRb8qcDxxMI/hPh5a9/ZNUg2AU8TMbgFuBH4ERGEsVKTKhGAEeAw 4HXAGcDJxDu8C16ZbCL2EH4CXAlcDTxIn/cM+hmAmcBxwHuAM4GDiN+rl7IbBx4B/hu4BFhMnEvo uX4EYDbxbv/rwOnAPn3670pNsxl4ElgEfIPYK3iml//BXi7EEWL3/neBNxHH9ZKm5mng+8AFxGFC Tw4NehGAIeBI4EPAe4H9e/DfkLJ4DPgm8BXgXmIvoWumdfPBiI/qzgW+ALwN2KvLjy9lM5vYk34D cT3BvcQ5g67oZgAOB/4S+GPgQDzOl7plCNgXOI24IO4u4mKjjnUjANOAtxDHKm8DZnThMSU93whw LPAq4krDB+jwkKDTAOxJHOv/LXHc77u+1FtDxB72G4gLiG4nriloSycBmAP8CfBnwLwOHkdSdbOB 1xLX0twEbGjnQdoNwH7Ap4HfIS7nldR/M4gThPsC1xPfP6iknQDsA3wOeB9eySeVNh04hnhTvoaK 3yuoGoC5wKeA38Jr96W6GAZeRnyb9lri48IpqRKAvYC/AD6M7/xS3QwDryAOya9lilcOTjUA04E/ BD6GH/NJdTWN+Er9BuA6pnATkqkG4F3AX+H1/FLdTQeOJq4RuHN3f3gqATgOOB84tLN5SeqTUeKc wE+AR3f1B3cXgPnAF4FTujMvSX2yL3E7vUXs4uPBXQVgGPgo8AG8957URAuIG5New04uGd5VAE4C PkN89CepeYaBI4gTgo/s6A/sLABzgM/irr/UdHOIN/Er2cHlwjvbtT8HOKuHk5LUP2cRa/p5dhSA /YD3E9/0k9R8exJrer/t/48dBeBs4vhf0uA4iVjbz7F9AOYT1/mP9GFCkvpnhFjb87f9h9sH4Azi F3okDZ7jiTX+rG0DMAq8Ha/1lwbVDGKNP3sPj20D8FLg1f2ekaS+ejWx1oHnBuDNbHd8IGngzCfW OrA1APPY7thA0sA6g9Z9PLcE4EjgJcWmI6mfXkKs+WcDcAJe8y9lMZdY8wwTVwmdgN/4k7IYJtb8 nsPE5YHHlp2PpD47FthvGFiIZ/+lbOYDC4eJH/X0xz2kXEaBww2AlNNzAiApn8OHiRsHSsrn4GHi lkGS8pkzTPzMsKR8ZhsAKa/ZQ8SdQr0DkJTPxiF28oMBkgaf1/9LiRkAKTEDICVmAKTEDICUmAGQ EjMAUmIGQErMAEiJGQApMQMgJWYApMQMgJSYAZASMwBSYgZASswASIkZACkxAyAlZgCkxAyAlJgB kBIzAFJiBkBKzABIiRkAKTEDICVmAKTEDICUmAGQEjMAUmIGQErMAEiJGQApMQMgJWYApMQMgJSY AZASMwBSYgZASswASIkZACmx6aUn0KYxYBGwrs1/fxg4HljQtRmpyVYDPwTWt/nvzwROB0a7NaF+ aWoAngL+AFgGDLXx748AF2IAFJYBHwUep/rraTNwIBEQA9Ank8CG1mjHRGtIEIu4k9fTBuI12Tie A5ASMwBSYgZASswASIkZACkxAyAlZgCkxAyAlJgBkBIzAFJiBkBKzABIiRkAKTEDICVmAKTEDICU mAGQEjMAUmIGQErMAEiJGQApMQMgJWYApMQMgJSYAZASMwBSYgZASswASIkZACkxAyAlZgCkxAyA lJgBkBIzAFJiBkBKzABIiRkAKTEDICVmAKTEDICUmAGQEjMAUmIGQErMAEiJGQApMQMgJWYApMQM gJSYAZASMwBSYgZASswASIkZACkxAyAlZgCkxAyAlJgBkBIzAFJiBkBKzABIiRkAKTEDICVmAKTE DICUmAGQEjMAUmIGQErMAEiJGQApMQMgJWYApMQMgJSYAZASMwBSYgZASswASIkZACkxAyAlZgCk xAyAlJgBkBIzAFJiBkBKzABIiRkAKTEDICVmAKTEDICUmAGQEjMAUmIGQErMAEiJGQApMQMgJWYA pMQMgJSYAZASMwBSYgZASswASIkZACkxAyAlZgCkxAyAlJgBkBIzAFJiBkBKzABIiRkAKTEDICVm AKTEDICUmAGQEjMAUmIGQErMAEiJGQApMQMgJWYApMQMgJSYAZASMwBSYgZASswASIkZACkxAyAl ZgCkxAyAlJgBkBIzAFJiBkBKzABIiRkAKTEDICVmAKTEDICUmAGQEjMAUmIGQErMAEiJGQApMQMg JWYApMQMgJSYAZASMwBSYgZASswASIkZACkxAyAlZgCkxAyAlJgBkBIzAFJiBkBKzABIiRkAKTED ICVmAKTEDICUmAGQEmtqAIZKT0DaTiNfk8PAROlJtGETsLn0JKSWzcRrsmkmhoF1pWfRhvU0M1wa TBPEa7Jp1g0DY6Vn0YZ1GADVxwTNfCMdGwaeLD2LNqwExktPQmoZJ16TTfPkMPBg6Vm04WGaueei wTRGvCab5sFhYEnpWbThYdwDUH2M08wALBkGbqVZxy/rgDtLT0Lazp00bx3dOgxcDzxVeDJVrCCi JdXJrcRrsymeAq7fcg7g9rJzqeRWYFnpSUjbWUaz3phup3UOYDWwCJgsO58pmQSuAtaUnoi0nTXE a7Mp62gRsHrLpcCLaMa76sPEXKU6WkQzTgYuo7WOtgTgLuCyYtOZusuAe0pPQtqJe2jOOroLtgZg HPg6sLzUjKZgGTFHP/5TXW1ZR3Xem17ONuto228D3gBcTD2PYSaBfwYWl56ItBuLiddqXdfRxcRa B54bgE3ARcB1fZ7UVFwHfIVmfuNKuWwiXqt1XUcXsc062v5+AEuBPwV+3sdJ7c69xJyWlp6INEVb 1tG9pSeyjZ9TYR29gzhW2Fx4LAPe3sGT3pk9gK/V4Pk56jHuAObTfW8nXsOln99yYk1P2TDwQeLK plKTfgp4P725a5EBcGw7ehWAYeI1/FTB57aCWMuV19EI8D7g/gKTvg84j1iovWAAHNuOXgUA4rV2 HvGa7vfzup9YwyPtTn4IOIW4aGCiDxOeIK6mOpne3mPNADi2Hb0MAMRr+WTitd2vdbSIWLtdWUcH Ap8HHiU+Suj2hCdbj/351n+r1wyAY9vR6wBs0eh1NAM4CbgAeKhLT2Cy9Vjntx57RrcnvRMGwLHt 6FcAYOs6Op/ur6MLqLiOpleY+Abgp8BNwFeBdwGvA44E5lV4rC23T7oHuBr4d+BneIWfctjZOnox MJepn/faRJzgu5et6+gOKq6jKgHYYhy4GbgNeAGwADgBOA44iHgS84DZrT//TGuiK4kvSiwmrkR6 kPgmYh2vmJJ6bRy4hVhHc4DD2LqODmbX6+gRtq6jJcDTtHmT3HYCsMVEazIriZrtAexJnHHcAxht /bkx4sluJO5C4tV80laTbF1HNxNrcia7Xkfr6dIecycB2N447sZLndpEH+930dSfBpPUBQZASswA SIkZACkxAyAlZgCkxAyAlJgBkBIzAFJiBkBKzABIiRkAKTEDICVmAKTEDICUmAGQEjMAUmIGQErM AEiJGQApsW7eFFT1sBG4BLiV7gV+EngF8B46+J051Y8BGDzjwHdbo5veAbwbAzBQPAQYPEP05odV e/W4KsgASIkZACkxAyAlZgCkxAyAlJgBkBIzAFJiBkBKzABIiRkAKTEDICVmAKTEDICUmAGQEjMA UmIGQErMAEiJGQApMQMgJWYApMQMgJSYAZASMwBSYgZASswASIkZACkxAyAlZgCkxAyAlJgBkBIz AFJiBkBKzABIiRkAKTEDICVmAKTEDICUmAGQEjMAUmIGQErMAEiJGQApMQMgJWYApMQMgJSYAZAS MwBSYgZASswASIkZACkxAyAlZgCkxAyAlJgBkBIzAFJiBkBKzABIiRkAKTEDICVmAKTEDICUmAGQ EjMAUmIGQErMAEiJGQApMQMgJWYApMQMgJSYAZASMwBSYgZASswASIkZACkxAyAlZgCkxAyAlJgB kBIzAFJiBkBKzABIiRkAKTEDICVmAKTEDICUmAGQEjMAUmIGQErMAEiJGQApMQMgJWYApMQMgJSY AZASMwBSYgZASswASIkZACkxAyAlZgCkxAyAlJgBkBIzAFJiBkBKzABIiRkAKTEDICVmAKTEDICU mAGQEjMAUmIGQErMAEiJGQApMQMgJWYApMQMgJSYAZASMwBSYgZASswASIkZACkxAyAlZgCkxAyA lJgBkBIzAFJiBkBKzABIiRkAKTEDICVmAKTEDICUmAGQEjMAUmIGQErMAEiJGQApMQMgJWYApMQM gJSYAZASMwBSYgZASswASIkZACkxAyAlZgCkxAyAlJgBkBIzAFJiBkBKzABIiRkAKTEDICVmAKTE DICUmAGQEjMAUmIGQErMAEiJGQApMQMgJWYApMQMgJSYAZASMwBSYgZASswASIkZACkxAyAlZgCk xAyAlJgBkBIzAFJiBkBKzABIiRkAKTEDICVmAKTEDICUmAGQEjMAUmIGQErMAEiJGQApMQMgJWYA pMQMgJSYAZASMwBSYgZASswASIkZACkxAyAlZgCkxAyAlJgBkBIzAFJiBkBKzABIiRkAKTEDICVm AKTEDICUmAGQEjMAUmIGQErMAEiJGQApMQMgJWYApMQMgJSYAZASMwBSYgZASswASIkZACkxAyAl ZgCkxAyAlJgBkBIzAFJiBkBKzABIiRkAKTEDICVmAKTEDICUmAGQEjMAUmIGQErMAEiJGQApMQMg JWYApMQMgJSYAZASMwBSYgZASswASIkZACkxAyAlZgCkxAyAlJgBkBIzAFJiBkBKzABIiRkAKTED ICVmAKTEDICUmAGQEjMAUmKZA7C59AR6ZDO9eW69etw6GOTntktZAzAJrC89iR6ZBDb04HHXtx57 EK1jcJ/bLmUNwASwtvQkemSCeEF32xiwqQePWwfPMLjPbZeyBgBgVekJ9Mg4vXluq1qPPYhWAhtL T6KEzAFYSm92lUtbBfyiB4/7JIMbzaXEHk46mQNwP4N5GPAQsUvbbWtbjz1oJonXQkqZA7AEeKT0 JHrgTmBNDx53TeuxB81q4PbSkyglcwCeAm4oPYku2wgspjdntCeBGxm8w6YHgLtLT6KUzAEYB37E YJ38eYIIQK/cCDzew8cv4RrizSClzAEAuBq4t/Qkuugn9PZ4dgmxYAbF08DlxEenKWUPwMPEC2AQ bAS+R2+uAdhiPXAZg3MR1Q3AT0tPQmUdS3wMtLnh48fAAV3eNjuyP7EXUPr5djrWAed1eduogaYB f0P5F2QnYwz4zW5vmF34bWKPo/Tz7mRcBezd7Q2jZjqK+Cio9Iuy3XE5MLfrW2Xn5gP/24Pn0a+x Aji761tFjXYecQFN6Rdn1bGaMi/mtxELqfTzrzomgS8AI93fJGqyUeBC4oxw6RdplRfzRa2599sM 4HPEl2hKb4cq4wfAgh5sDw2A+cC/Egur9At1KuMK4OCebImp2Re4dAfzquu4mTjpK+3UAuIEUekX 6+7GrcAre7QNqjicuJ6i9PbY3bgP+JUebQMNmKOB6yn/ot3ZeAQ4s2fPvrqTgJ9RfrvsbCwH3tmz Z6+BdCLwQ+p3OPAA8GvU7yKu04ld7NLbZ/txD/Cr1G97qQEOAb5MfBW29At5M3AtcCow1Msn3YGj iSsF63BicII4lDuxp89YA2828HvAMsq9mDcC3wKO7PFz7Yb9gQsoG81nWnM4sMfPVUlMI3ZxL6f/ L+xlwCeBfXr+LLtnNvARYve7n4dQW74O/QFgVs+fpdJ5IXH8fRVx+W0vX8yriHf91wDT+/HkumwI eCnwJeBRehuCceJTkY8RH4vW9RBJA2IecC5xOexquvfingAeA75JnOWf3a8n1EMzgJOJXfIH6O53 CNYBtwGfAA7DhV+ZG6wz84DjgDcCrwUWEnsJVS4zXUdcUnsX8D/E3sWd9PZrvSXsQWyf1xPb6xhg P2JXfaqvw03ErcmWEfc+WER8M3E5Se/r3ykD0B3TiRi8iDjr/MvEBUWHEF/SmUW8E64nTlCtAB4k 3hFvI76XvoTYm9jc36kXMZs4QXdsaxxOvIPPJ7bVLLb+dsPTxHUPS4ibt9wI3EHc/WiQ7uZUxP8D 0qyxWY8IWZgAAAAASUVORK5CYII= "
       id="image4785"
       x="561.21747"
       y="444.85452"
       inkscape:export-xdpi="109.05068"
       inkscape:export-ydpi="109.05068" />
    <image
       y="444.85452"
       x="721.67621"
       id="image4787"
       xlink:href="data:image/png;base64,iVBORw0KGgoAAAANSUhEUgAAAQAAAALMCAYAAAALsGw0AAAABHNCSVQICAgIfAhkiAAAGrxJREFU eJzt3XmwnWV9wPHvvQk35CYYE5ZAWRMEpSrKDi5oEUVEUdSZVltKXUY7dmpb21o705nWdrRqbauA U3Q62mIVau1oW6QgqRUroEDYZRMIARIWIQshN8vNvekfvxMSQpb7nu153/P7fmaecQbD4TlvzvM9 7/ue97xnCA2aGcA84ABgIXB4638XtP75bGDWNgNg7TbjGWAFsAR4YJuxvPXPN/TpeagPhkpPQB2b DryQWOjHAccDxwD7A6OtMb3Nx94EjLXGY8AtwI3AYuA+YFXrz6ihDEAzDQF7AycCZwCnEO/yc2h/ sU/VJmA1sYdwHXAlcD3wFDDZ4/+2uswANMso8HLgzcTCfxmwV9EZwRrgTuAKIga3EYcSkrpkFrHo LwGeIN5pN9dsTAK/AL4FnEX5MEmNtxfwVuDbwErKL/KpjtXAd4FziMMSSRXsAZxKLPzVlF/Q7Y41 wH8CpwMjXd1C0oA6DPg08bFb6QXcrfEE8HfAEXjeSdqhUeC9wA3ABOUXbbfHJHGC8IN4fkB6jgOB LwJPU36h9nqsBf6R+NhSSm0IOBm4isF819/V3sC1wBuA4Y63otRAI8B5xBV1pRdkqfEI8FG2XpIs pTAKfJxmfbTXq/EM8BnicmZp4M0BPkW88EsvvrqMDcBFwH4dbFep9vYBLgTWU37R1W1sAi4FDml7 60o1Nhf4MjBO+cVW1zEJfIf4VEQaGLOAzxK7uqUXWd3HJHAxsbckNd4I8Ani8+/Si6spYxw4H3hB G9tbqo1h4EN4tr+dsR74JHGHI6mRTgMepvxiaupYBZxbeatLNbAA+DHlF1HTxz3ACRW3vVTULOKM fx1v3NHEcTlxj0N12bTSExhAQ8AHgD/C78B3y0IiplfjfQdVcy8H7qb8u+agjV8Qt0WTamtPYte/ 9GIZ1HElsO+U/zakPjsbP/Lr5dgI/D7eVUg1NB/4AeUXyaCPu4nDLHWBN2PonncCryk9iQReDLyf 3v8ASgoGoDvmA79B3M1XvXcO8aMo6pAB6I63EL/Lp/44lLiBqh9jd8gAdG5v4nJVr1nvr3cBR5We RNMZgM6dRtzYU/21EHg3fiLQEQPQmRnER38zS08kqbPwNmIdMQCdWQi8tvQkEjuK+Gl0tckAdOY0 4KDSk0hsFnEC1k9f2mQA2jcbOBPPRJf2eryRaNsMQPuOwI/+6uBQ4FWlJ9FUBqB9x+KNK+tgBDgR X8ttcaO1ZxpwPF6OWhfHEbddV0UGoD1ziT0A1cOLiFuwqSID0J6F+PPWdTIXz8e0xQC052XEb/yp HqYTfye+nityg7XnUPzsuW4OI351WRUYgOr2wM+d6+gQDEBlBqC6WcQegOplP+KbmarAAFQ3Czi4 9CT0PKO4Z1aZAahub/zRyjqaCRxQehJNYwCqm40XANXRdOLvRhUYgOpG8QtAdTSEJwErMwDVjeIe QF0ZgIoMQHWzcA+grgxARQaguhkYgLraE+8RWIkBqG4cf6G2rjYSvx6kKTIA1a0FNpWehHZorPQE msYAVDcGTJSehHbIAFRkAKozAPW0GQNQmQGozkOAepog/m5UgQGobgW+0OpoPfBE6Uk0jQGobg2w rPQk9DxjwNLSk2gaA1DdWnyh1dEK3AOozABUtwF4qPQk9DwP4UnAygxAe5biJwF1sxQDUJkBaM9d xLkA1cNm4E78dKYyA9Cee/AwoE5WAYtLT6KJDEB7VgA3l56EnrUUuLf0JJrIALRnI3AjfimoLhYT UVZFBqB9i4GVpSchJoAbiG9pqiID0L67gdtLT0IsB64pPYmmMgDtWwlcgd8/L+3HwH2lJ9FUBqAz VwGPl55EYhuA7xHfA1AbDEBn7gauKz2JxO4H/q/0JJrMAHRmDLiM+FRA/XclfjGrIwagc1cAt5ae REKPAt/CS7I7YgA6txz4Bl6G2m//BdxUehJNZwC647vAHaUnkcjjwMV46NUxA9AdS4FLcHe0X75H XIkp1cZhxBVpmx09HQ8BJ0/tr0S74y/cdM8qYB1wBjBSeC6DagL4AnApXoClGppNHAqUfpcc1HEN cNCU/zakAk4izgmUXiyDNlYD767w96Ap8BCg+x4D9gBOxe3bLZuBrwEX4setaoC5eCjQzfEj4iSr 1BhHEReqlF48TR9LgddX2/RSPZxNXLRSehE1dawFPgIMVd3wmhqPUXvrfuKjq1fjR4NVbQL+Afh7 vOJPDTYKfIr4znrpd9SmjAnipN/ebWxvqXbmAF8i3tVKL666j0ng28ABbW1pqab2Bb5OvLuVXmR1 HlcAC9rcxlKt7Q98lTimLb3Q6jYmgf8AXtT21pUaYB5xYmuM8ouuLmOc+HrvgR1sV6kx9gL+HHia 8ouv9BgDvogn/JTMTODDwIOUX4SlxmPAx4kgSukMEd8Z+CG5Tg5OAtcDZwLTO92IUtMdQnxMuIby i7PXYwz4J+CIbmw4aVDMAs4lfnNwEPcGJomfUvsQ8IIubTNp4CwA/pq423DpRdut8QTxyceReF2/ tFtb7ifwbeJGGKUXcLtjDXH77jcCM7q6haQEZgNvBf4NWEH5BT3VsQr4DnAOcRm0pA7MAt4E/Avx 0VkdzxFMEF99vpQ4u+9Hew3g8VizzAReSsTgzcDRxAm1Un+Pm4mLmW4nfqfv+8QPpIwVmo8qMgDN NETcduw4IganEB+rzSXOH/TSOLASuI/4ZeTvE59cbDlEUYMYgOabRhxnHwocS0ThGOBg4tBhlPZv RrKR+K2DtcDDwM3EYr+JuIJxNf4aUqMZgMEznTgsmEdE4JDWOIjYQxjdbkDssm87VgKPEL/C8xCx +FcSC9678g4QA5DHdOLwYFprTGfrLeEmiIU90RrjuNAlSZIkSZIkSZIkSZIkSZIkSZIkSZIkSZIk SZIkSZIkSZIkSZIkSZIkaarq/NuAw8CexA9YzgF+ifhxy5mtfzazNaaXmqBE/IbiutYYa/3vSmA5 8WOqY8B6YLLUBHelTgEYAV4IHA68EngJ8au2BwPziZ+6HmHrj1tOIyIhlTbJ1h9WnSB+Vn0t8Djx y8oPAXcDtwD3A6taf6a40gEYJRb8qcDxxMI/hPh5a9/ZNUg2AU8TMbgFuBH4ERGEsVKTKhGAEeAw 4HXAGcDJxDu8C16ZbCL2EH4CXAlcDTxIn/cM+hmAmcBxwHuAM4GDiN+rl7IbBx4B/hu4BFhMnEvo uX4EYDbxbv/rwOnAPn3670pNsxl4ElgEfIPYK3iml//BXi7EEWL3/neBNxHH9ZKm5mng+8AFxGFC Tw4NehGAIeBI4EPAe4H9e/DfkLJ4DPgm8BXgXmIvoWumdfPBiI/qzgW+ALwN2KvLjy9lM5vYk34D cT3BvcQ5g67oZgAOB/4S+GPgQDzOl7plCNgXOI24IO4u4mKjjnUjANOAtxDHKm8DZnThMSU93whw LPAq4krDB+jwkKDTAOxJHOv/LXHc77u+1FtDxB72G4gLiG4nriloSycBmAP8CfBnwLwOHkdSdbOB 1xLX0twEbGjnQdoNwH7Ap4HfIS7nldR/M4gThPsC1xPfP6iknQDsA3wOeB9eySeVNh04hnhTvoaK 3yuoGoC5wKeA38Jr96W6GAZeRnyb9lri48IpqRKAvYC/AD6M7/xS3QwDryAOya9lilcOTjUA04E/ BD6GH/NJdTWN+Er9BuA6pnATkqkG4F3AX+H1/FLdTQeOJq4RuHN3f3gqATgOOB84tLN5SeqTUeKc wE+AR3f1B3cXgPnAF4FTujMvSX2yL3E7vUXs4uPBXQVgGPgo8AG8957URAuIG5New04uGd5VAE4C PkN89CepeYaBI4gTgo/s6A/sLABzgM/irr/UdHOIN/Er2cHlwjvbtT8HOKuHk5LUP2cRa/p5dhSA /YD3E9/0k9R8exJrer/t/48dBeBs4vhf0uA4iVjbz7F9AOYT1/mP9GFCkvpnhFjb87f9h9sH4Azi F3okDZ7jiTX+rG0DMAq8Ha/1lwbVDGKNP3sPj20D8FLg1f2ekaS+ejWx1oHnBuDNbHd8IGngzCfW OrA1APPY7thA0sA6g9Z9PLcE4EjgJcWmI6mfXkKs+WcDcAJe8y9lMZdY8wwTVwmdgN/4k7IYJtb8 nsPE5YHHlp2PpD47FthvGFiIZ/+lbOYDC4eJH/X0xz2kXEaBww2AlNNzAiApn8OHiRsHSsrn4GHi lkGS8pkzTPzMsKR8ZhsAKa/ZQ8SdQr0DkJTPxiF28oMBkgaf1/9LiRkAKTEDICVmAKTEDICUmAGQ EjMAUmIGQErMAEiJGQApMQMgJWYApMQMgJSYAZASMwBSYgZASswASIkZACkxAyAlZgCkxAyAlJgB kBIzAFJiBkBKzABIiRkAKTEDICVmAKTEDICUmAGQEjMAUmIGQErMAEiJGQApMQMgJWYApMQMgJSY AZASMwBSYgZASswASIkZACmx6aUn0KYxYBGwrs1/fxg4HljQtRmpyVYDPwTWt/nvzwROB0a7NaF+ aWoAngL+AFgGDLXx748AF2IAFJYBHwUep/rraTNwIBEQA9Ank8CG1mjHRGtIEIu4k9fTBuI12Tie A5ASMwBSYgZASswASIkZACkxAyAlZgCkxAyAlJgBkBIzAFJiBkBKzABIiRkAKTEDICVmAKTEDICU mAGQEjMAUmIGQErMAEiJGQApMQMgJWYApMQMgJSYAZASMwBSYgZASswASIkZACkxAyAlZgCkxAyA lJgBkBIzAFJiBkBKzABIiRkAKTEDICVmAKTEDICUmAGQEjMAUmIGQErMAEiJGQApMQMgJWYApMQM gJSYAZASMwBSYgZASswASIkZACkxAyAlZgCkxAyAlJgBkBIzAFJiBkBKzABIiRkAKTEDICVmAKTE DICUmAGQEjMAUmIGQErMAEiJGQApMQMgJWYApMQMgJSYAZASMwBSYgZASswASIkZACkxAyAlZgCk xAyAlJgBkBIzAFJiBkBKzABIiRkAKTEDICVmAKTEDICUmAGQEjMAUmIGQErMAEiJGQApMQMgJWYA pMQMgJSYAZASMwBSYgZASswASIkZACkxAyAlZgCkxAyAlJgBkBIzAFJiBkBKzABIiRkAKTEDICVm AKTEDICUmAGQEjMAUmIGQErMAEiJGQApMQMgJWYApMQMgJSYAZASMwBSYgZASswASIkZACkxAyAl ZgCkxAyAlJgBkBIzAFJiBkBKzABIiRkAKTEDICVmAKTEDICUmAGQEjMAUmIGQErMAEiJGQApMQMg JWYApMQMgJSYAZASMwBSYgZASswASIkZACkxAyAlZgCkxAyAlJgBkBIzAFJiBkBKzABIiRkAKTED ICVmAKTEDICUmAGQEmtqAIZKT0DaTiNfk8PAROlJtGETsLn0JKSWzcRrsmkmhoF1pWfRhvU0M1wa TBPEa7Jp1g0DY6Vn0YZ1GADVxwTNfCMdGwaeLD2LNqwExktPQmoZJ16TTfPkMPBg6Vm04WGaueei wTRGvCab5sFhYEnpWbThYdwDUH2M08wALBkGbqVZxy/rgDtLT0Lazp00bx3dOgxcDzxVeDJVrCCi JdXJrcRrsymeAq7fcg7g9rJzqeRWYFnpSUjbWUaz3phup3UOYDWwCJgsO58pmQSuAtaUnoi0nTXE a7Mp62gRsHrLpcCLaMa76sPEXKU6WkQzTgYuo7WOtgTgLuCyYtOZusuAe0pPQtqJe2jOOroLtgZg HPg6sLzUjKZgGTFHP/5TXW1ZR3Xem17ONuto228D3gBcTD2PYSaBfwYWl56ItBuLiddqXdfRxcRa B54bgE3ARcB1fZ7UVFwHfIVmfuNKuWwiXqt1XUcXsc062v5+AEuBPwV+3sdJ7c69xJyWlp6INEVb 1tG9pSeyjZ9TYR29gzhW2Fx4LAPe3sGT3pk9gK/V4Pk56jHuAObTfW8nXsOln99yYk1P2TDwQeLK plKTfgp4P725a5EBcGw7ehWAYeI1/FTB57aCWMuV19EI8D7g/gKTvg84j1iovWAAHNuOXgUA4rV2 HvGa7vfzup9YwyPtTn4IOIW4aGCiDxOeIK6mOpne3mPNADi2Hb0MAMRr+WTitd2vdbSIWLtdWUcH Ap8HHiU+Suj2hCdbj/351n+r1wyAY9vR6wBs0eh1NAM4CbgAeKhLT2Cy9Vjntx57RrcnvRMGwLHt 6FcAYOs6Op/ur6MLqLiOpleY+Abgp8BNwFeBdwGvA44E5lV4rC23T7oHuBr4d+BneIWfctjZOnox MJepn/faRJzgu5et6+gOKq6jKgHYYhy4GbgNeAGwADgBOA44iHgS84DZrT//TGuiK4kvSiwmrkR6 kPgmYh2vmJJ6bRy4hVhHc4DD2LqODmbX6+gRtq6jJcDTtHmT3HYCsMVEazIriZrtAexJnHHcAxht /bkx4sluJO5C4tV80laTbF1HNxNrcia7Xkfr6dIecycB2N447sZLndpEH+930dSfBpPUBQZASswA SIkZACkxAyAlZgCkxAyAlJgBkBIzAFJiBkBKzABIiRkAKTEDICVmAKTEDICUmAGQEjMAUmIGQErM AEiJGQApsW7eFFT1sBG4BLiV7gV+EngF8B46+J051Y8BGDzjwHdbo5veAbwbAzBQPAQYPEP05odV e/W4KsgASIkZACkxAyAlZgCkxAyAlJgBkBIzAFJiBkBKzABIiRkAKTEDICVmAKTEDICUmAGQEjMA UmIGQErMAEiJGQApMQMgJWYApMQMgJSYAZASMwBSYgZASswASIkZACkxAyAlZgCkxAyAlJgBkBIz AFJiBkBKzABIiRkAKTEDICVmAKTEDICUmAGQEjMAUmIGQErMAEiJGQApMQMgJWYApMQMgJSYAZAS MwBSYgZASswASIkZACkxAyAlZgCkxAyAlJgBkBIzAFJiBkBKzABIiRkAKTEDICVmAKTEDICUmAGQ EjMAUmIGQErMAEiJGQApMQMgJWYApMQMgJSYAZASMwBSYgZASswASIkZACkxAyAlZgCkxAyAlJgB kBIzAFJiBkBKzABIiRkAKTEDICVmAKTEDICUmAGQEjMAUmIGQErMAEiJGQApMQMgJWYApMQMgJSY AZASMwBSYgZASswASIkZACkxAyAlZgCkxAyAlJgBkBIzAFJiBkBKzABIiRkAKTEDICVmAKTEDICU mAGQEjMAUmIGQErMAEiJGQApMQMgJWYApMQMgJSYAZASMwBSYgZASswASIkZACkxAyAlZgCkxAyA lJgBkBIzAFJiBkBKzABIiRkAKTEDICVmAKTEDICUmAGQEjMAUmIGQErMAEiJGQApMQMgJWYApMQM gJSYAZASMwBSYgZASswASIkZACkxAyAlZgCkxAyAlJgBkBIzAFJiBkBKzABIiRkAKTEDICVmAKTE DICUmAGQEjMAUmIGQErMAEiJGQApMQMgJWYApMQMgJSYAZASMwBSYgZASswASIkZACkxAyAlZgCk xAyAlJgBkBIzAFJiBkBKzABIiRkAKTEDICVmAKTEDICUmAGQEjMAUmIGQErMAEiJGQApMQMgJWYA pMQMgJSYAZASMwBSYgZASswASIkZACkxAyAlZgCkxAyAlJgBkBIzAFJiBkBKzABIiRkAKTEDICVm AKTEDICUmAGQEjMAUmIGQErMAEiJGQApMQMgJWYApMQMgJSYAZASMwBSYgZASswASIkZACkxAyAl ZgCkxAyAlJgBkBIzAFJiBkBKzABIiRkAKTEDICVmAKTEDICUmAGQEjMAUmIGQErMAEiJGQApMQMg JWYApMQMgJSYAZASMwBSYgZASswASIkZACkxAyAlZgCkxAyAlJgBkBIzAFJiBkBKzABIiRkAKTED ICVmAKTEDICUmAGQEjMAUmKZA7C59AR6ZDO9eW69etw6GOTntktZAzAJrC89iR6ZBDb04HHXtx57 EK1jcJ/bLmUNwASwtvQkemSCeEF32xiwqQePWwfPMLjPbZeyBgBgVekJ9Mg4vXluq1qPPYhWAhtL T6KEzAFYSm92lUtbBfyiB4/7JIMbzaXEHk46mQNwP4N5GPAQsUvbbWtbjz1oJonXQkqZA7AEeKT0 JHrgTmBNDx53TeuxB81q4PbSkyglcwCeAm4oPYku2wgspjdntCeBGxm8w6YHgLtLT6KUzAEYB37E YJ38eYIIQK/cCDzew8cv4RrizSClzAEAuBq4t/Qkuugn9PZ4dgmxYAbF08DlxEenKWUPwMPEC2AQ bAS+R2+uAdhiPXAZg3MR1Q3AT0tPQmUdS3wMtLnh48fAAV3eNjuyP7EXUPr5djrWAed1eduogaYB f0P5F2QnYwz4zW5vmF34bWKPo/Tz7mRcBezd7Q2jZjqK+Cio9Iuy3XE5MLfrW2Xn5gP/24Pn0a+x Aji761tFjXYecQFN6Rdn1bGaMi/mtxELqfTzrzomgS8AI93fJGqyUeBC4oxw6RdplRfzRa2599sM 4HPEl2hKb4cq4wfAgh5sDw2A+cC/Egur9At1KuMK4OCebImp2Re4dAfzquu4mTjpK+3UAuIEUekX 6+7GrcAre7QNqjicuJ6i9PbY3bgP+JUebQMNmKOB6yn/ot3ZeAQ4s2fPvrqTgJ9RfrvsbCwH3tmz Z6+BdCLwQ+p3OPAA8GvU7yKu04ld7NLbZ/txD/Cr1G97qQEOAb5MfBW29At5M3AtcCow1Msn3YGj iSsF63BicII4lDuxp89YA2828HvAMsq9mDcC3wKO7PFz7Yb9gQsoG81nWnM4sMfPVUlMI3ZxL6f/ L+xlwCeBfXr+LLtnNvARYve7n4dQW74O/QFgVs+fpdJ5IXH8fRVx+W0vX8yriHf91wDT+/HkumwI eCnwJeBRehuCceJTkY8RH4vW9RBJA2IecC5xOexquvfingAeA75JnOWf3a8n1EMzgJOJXfIH6O53 CNYBtwGfAA7DhV+ZG6wz84DjgDcCrwUWEnsJVS4zXUdcUnsX8D/E3sWd9PZrvSXsQWyf1xPb6xhg P2JXfaqvw03ErcmWEfc+WER8M3E5Se/r3ykD0B3TiRi8iDjr/MvEBUWHEF/SmUW8E64nTlCtAB4k 3hFvI76XvoTYm9jc36kXMZs4QXdsaxxOvIPPJ7bVLLb+dsPTxHUPS4ibt9wI3EHc/WiQ7uZUxP8D 0qyxWY8IWZgAAAAASUVORK5CYII= "
       style="image-rendering:optimizeSpeed"
       preserveAspectRatio="none"
       height="330.12173"
       width="118.03235"
       inkscape:export-xdpi="109.05068"
       inkscape:export-ydpi="109.05068" />
    <image
       y="444.85452"
       x="882.44598"
       id="image4789"
       xlink:href="data:image/png;base64,iVBORw0KGgoAAAANSUhEUgAAAQAAAALMCAYAAAALsGw0AAAABHNCSVQICAgIfAhkiAAAGrxJREFU eJzt3XmwnWV9wPHvvQk35CYYE5ZAWRMEpSrKDi5oEUVEUdSZVltKXUY7dmpb21o705nWdrRqbauA U3Q62mIVau1oW6QgqRUroEDYZRMIARIWIQshN8vNvekfvxMSQpb7nu153/P7fmaecQbD4TlvzvM9 7/ue97xnCA2aGcA84ABgIXB4638XtP75bGDWNgNg7TbjGWAFsAR4YJuxvPXPN/TpeagPhkpPQB2b DryQWOjHAccDxwD7A6OtMb3Nx94EjLXGY8AtwI3AYuA+YFXrz6ihDEAzDQF7AycCZwCnEO/yc2h/ sU/VJmA1sYdwHXAlcD3wFDDZ4/+2uswANMso8HLgzcTCfxmwV9EZwRrgTuAKIga3EYcSkrpkFrHo LwGeIN5pN9dsTAK/AL4FnEX5MEmNtxfwVuDbwErKL/KpjtXAd4FziMMSSRXsAZxKLPzVlF/Q7Y41 wH8CpwMjXd1C0oA6DPg08bFb6QXcrfEE8HfAEXjeSdqhUeC9wA3ABOUXbbfHJHGC8IN4fkB6jgOB LwJPU36h9nqsBf6R+NhSSm0IOBm4isF819/V3sC1wBuA4Y63otRAI8B5xBV1pRdkqfEI8FG2XpIs pTAKfJxmfbTXq/EM8BnicmZp4M0BPkW88EsvvrqMDcBFwH4dbFep9vYBLgTWU37R1W1sAi4FDml7 60o1Nhf4MjBO+cVW1zEJfIf4VEQaGLOAzxK7uqUXWd3HJHAxsbckNd4I8Ani8+/Si6spYxw4H3hB G9tbqo1h4EN4tr+dsR74JHGHI6mRTgMepvxiaupYBZxbeatLNbAA+DHlF1HTxz3ACRW3vVTULOKM fx1v3NHEcTlxj0N12bTSExhAQ8AHgD/C78B3y0IiplfjfQdVcy8H7qb8u+agjV8Qt0WTamtPYte/ 9GIZ1HElsO+U/zakPjsbP/Lr5dgI/D7eVUg1NB/4AeUXyaCPu4nDLHWBN2PonncCryk9iQReDLyf 3v8ASgoGoDvmA79B3M1XvXcO8aMo6pAB6I63EL/Lp/44lLiBqh9jd8gAdG5v4nJVr1nvr3cBR5We RNMZgM6dRtzYU/21EHg3fiLQEQPQmRnER38zS08kqbPwNmIdMQCdWQi8tvQkEjuK+Gl0tckAdOY0 4KDSk0hsFnEC1k9f2mQA2jcbOBPPRJf2eryRaNsMQPuOwI/+6uBQ4FWlJ9FUBqB9x+KNK+tgBDgR X8ttcaO1ZxpwPF6OWhfHEbddV0UGoD1ziT0A1cOLiFuwqSID0J6F+PPWdTIXz8e0xQC052XEb/yp HqYTfye+nityg7XnUPzsuW4OI351WRUYgOr2wM+d6+gQDEBlBqC6WcQegOplP+KbmarAAFQ3Czi4 9CT0PKO4Z1aZAahub/zRyjqaCRxQehJNYwCqm40XANXRdOLvRhUYgOpG8QtAdTSEJwErMwDVjeIe QF0ZgIoMQHWzcA+grgxARQaguhkYgLraE+8RWIkBqG4cf6G2rjYSvx6kKTIA1a0FNpWehHZorPQE msYAVDcGTJSehHbIAFRkAKozAPW0GQNQmQGozkOAepog/m5UgQGobgW+0OpoPfBE6Uk0jQGobg2w rPQk9DxjwNLSk2gaA1DdWnyh1dEK3AOozABUtwF4qPQk9DwP4UnAygxAe5biJwF1sxQDUJkBaM9d xLkA1cNm4E78dKYyA9Cee/AwoE5WAYtLT6KJDEB7VgA3l56EnrUUuLf0JJrIALRnI3AjfimoLhYT UVZFBqB9i4GVpSchJoAbiG9pqiID0L67gdtLT0IsB64pPYmmMgDtWwlcgd8/L+3HwH2lJ9FUBqAz VwGPl55EYhuA7xHfA1AbDEBn7gauKz2JxO4H/q/0JJrMAHRmDLiM+FRA/XclfjGrIwagc1cAt5ae REKPAt/CS7I7YgA6txz4Bl6G2m//BdxUehJNZwC647vAHaUnkcjjwMV46NUxA9AdS4FLcHe0X75H XIkp1cZhxBVpmx09HQ8BJ0/tr0S74y/cdM8qYB1wBjBSeC6DagL4AnApXoClGppNHAqUfpcc1HEN cNCU/zakAk4izgmUXiyDNlYD767w96Ap8BCg+x4D9gBOxe3bLZuBrwEX4setaoC5eCjQzfEj4iSr 1BhHEReqlF48TR9LgddX2/RSPZxNXLRSehE1dawFPgIMVd3wmhqPUXvrfuKjq1fjR4NVbQL+Afh7 vOJPDTYKfIr4znrpd9SmjAnipN/ebWxvqXbmAF8i3tVKL666j0ng28ABbW1pqab2Bb5OvLuVXmR1 HlcAC9rcxlKt7Q98lTimLb3Q6jYmgf8AXtT21pUaYB5xYmuM8ouuLmOc+HrvgR1sV6kx9gL+HHia 8ouv9BgDvogn/JTMTODDwIOUX4SlxmPAx4kgSukMEd8Z+CG5Tg5OAtcDZwLTO92IUtMdQnxMuIby i7PXYwz4J+CIbmw4aVDMAs4lfnNwEPcGJomfUvsQ8IIubTNp4CwA/pq423DpRdut8QTxyceReF2/ tFtb7ifwbeJGGKUXcLtjDXH77jcCM7q6haQEZgNvBf4NWEH5BT3VsQr4DnAOcRm0pA7MAt4E/Avx 0VkdzxFMEF99vpQ4u+9Hew3g8VizzAReSsTgzcDRxAm1Un+Pm4mLmW4nfqfv+8QPpIwVmo8qMgDN NETcduw4IganEB+rzSXOH/TSOLASuI/4ZeTvE59cbDlEUYMYgOabRhxnHwocS0ThGOBg4tBhlPZv RrKR+K2DtcDDwM3EYr+JuIJxNf4aUqMZgMEznTgsmEdE4JDWOIjYQxjdbkDssm87VgKPEL/C8xCx +FcSC9678g4QA5DHdOLwYFprTGfrLeEmiIU90RrjuNAlSZIkSZIkSZIkSZIkSZIkSZIkSZIkSZIk SZIkSZIkSZIkSZIkSZIkaarq/NuAw8CexA9YzgF+ifhxy5mtfzazNaaXmqBE/IbiutYYa/3vSmA5 8WOqY8B6YLLUBHelTgEYAV4IHA68EngJ8au2BwPziZ+6HmHrj1tOIyIhlTbJ1h9WnSB+Vn0t8Djx y8oPAXcDtwD3A6taf6a40gEYJRb8qcDxxMI/hPh5a9/ZNUg2AU8TMbgFuBH4ERGEsVKTKhGAEeAw 4HXAGcDJxDu8C16ZbCL2EH4CXAlcDTxIn/cM+hmAmcBxwHuAM4GDiN+rl7IbBx4B/hu4BFhMnEvo uX4EYDbxbv/rwOnAPn3670pNsxl4ElgEfIPYK3iml//BXi7EEWL3/neBNxHH9ZKm5mng+8AFxGFC Tw4NehGAIeBI4EPAe4H9e/DfkLJ4DPgm8BXgXmIvoWumdfPBiI/qzgW+ALwN2KvLjy9lM5vYk34D cT3BvcQ5g67oZgAOB/4S+GPgQDzOl7plCNgXOI24IO4u4mKjjnUjANOAtxDHKm8DZnThMSU93whw LPAq4krDB+jwkKDTAOxJHOv/LXHc77u+1FtDxB72G4gLiG4nriloSycBmAP8CfBnwLwOHkdSdbOB 1xLX0twEbGjnQdoNwH7Ap4HfIS7nldR/M4gThPsC1xPfP6iknQDsA3wOeB9eySeVNh04hnhTvoaK 3yuoGoC5wKeA38Jr96W6GAZeRnyb9lri48IpqRKAvYC/AD6M7/xS3QwDryAOya9lilcOTjUA04E/ BD6GH/NJdTWN+Er9BuA6pnATkqkG4F3AX+H1/FLdTQeOJq4RuHN3f3gqATgOOB84tLN5SeqTUeKc wE+AR3f1B3cXgPnAF4FTujMvSX2yL3E7vUXs4uPBXQVgGPgo8AG8957URAuIG5New04uGd5VAE4C PkN89CepeYaBI4gTgo/s6A/sLABzgM/irr/UdHOIN/Er2cHlwjvbtT8HOKuHk5LUP2cRa/p5dhSA /YD3E9/0k9R8exJrer/t/48dBeBs4vhf0uA4iVjbz7F9AOYT1/mP9GFCkvpnhFjb87f9h9sH4Azi F3okDZ7jiTX+rG0DMAq8Ha/1lwbVDGKNP3sPj20D8FLg1f2ekaS+ejWx1oHnBuDNbHd8IGngzCfW OrA1APPY7thA0sA6g9Z9PLcE4EjgJcWmI6mfXkKs+WcDcAJe8y9lMZdY8wwTVwmdgN/4k7IYJtb8 nsPE5YHHlp2PpD47FthvGFiIZ/+lbOYDC4eJH/X0xz2kXEaBww2AlNNzAiApn8OHiRsHSsrn4GHi lkGS8pkzTPzMsKR8ZhsAKa/ZQ8SdQr0DkJTPxiF28oMBkgaf1/9LiRkAKTEDICVmAKTEDICUmAGQ EjMAUmIGQErMAEiJGQApMQMgJWYApMQMgJSYAZASMwBSYgZASswASIkZACkxAyAlZgCkxAyAlJgB kBIzAFJiBkBKzABIiRkAKTEDICVmAKTEDICUmAGQEjMAUmIGQErMAEiJGQApMQMgJWYApMQMgJSY AZASMwBSYgZASswASIkZACmx6aUn0KYxYBGwrs1/fxg4HljQtRmpyVYDPwTWt/nvzwROB0a7NaF+ aWoAngL+AFgGDLXx748AF2IAFJYBHwUep/rraTNwIBEQA9Ank8CG1mjHRGtIEIu4k9fTBuI12Tie A5ASMwBSYgZASswASIkZACkxAyAlZgCkxAyAlJgBkBIzAFJiBkBKzABIiRkAKTEDICVmAKTEDICU mAGQEjMAUmIGQErMAEiJGQApMQMgJWYApMQMgJSYAZASMwBSYgZASswASIkZACkxAyAlZgCkxAyA lJgBkBIzAFJiBkBKzABIiRkAKTEDICVmAKTEDICUmAGQEjMAUmIGQErMAEiJGQApMQMgJWYApMQM gJSYAZASMwBSYgZASswASIkZACkxAyAlZgCkxAyAlJgBkBIzAFJiBkBKzABIiRkAKTEDICVmAKTE DICUmAGQEjMAUmIGQErMAEiJGQApMQMgJWYApMQMgJSYAZASMwBSYgZASswASIkZACkxAyAlZgCk xAyAlJgBkBIzAFJiBkBKzABIiRkAKTEDICVmAKTEDICUmAGQEjMAUmIGQErMAEiJGQApMQMgJWYA pMQMgJSYAZASMwBSYgZASswASIkZACkxAyAlZgCkxAyAlJgBkBIzAFJiBkBKzABIiRkAKTEDICVm AKTEDICUmAGQEjMAUmIGQErMAEiJGQApMQMgJWYApMQMgJSYAZASMwBSYgZASswASIkZACkxAyAl ZgCkxAyAlJgBkBIzAFJiBkBKzABIiRkAKTEDICVmAKTEDICUmAGQEjMAUmIGQErMAEiJGQApMQMg JWYApMQMgJSYAZASMwBSYgZASswASIkZACkxAyAlZgCkxAyAlJgBkBIzAFJiBkBKzABIiRkAKTED ICVmAKTEDICUmAGQEmtqAIZKT0DaTiNfk8PAROlJtGETsLn0JKSWzcRrsmkmhoF1pWfRhvU0M1wa TBPEa7Jp1g0DY6Vn0YZ1GADVxwTNfCMdGwaeLD2LNqwExktPQmoZJ16TTfPkMPBg6Vm04WGaueei wTRGvCab5sFhYEnpWbThYdwDUH2M08wALBkGbqVZxy/rgDtLT0Lazp00bx3dOgxcDzxVeDJVrCCi JdXJrcRrsymeAq7fcg7g9rJzqeRWYFnpSUjbWUaz3phup3UOYDWwCJgsO58pmQSuAtaUnoi0nTXE a7Mp62gRsHrLpcCLaMa76sPEXKU6WkQzTgYuo7WOtgTgLuCyYtOZusuAe0pPQtqJe2jOOroLtgZg HPg6sLzUjKZgGTFHP/5TXW1ZR3Xem17ONuto228D3gBcTD2PYSaBfwYWl56ItBuLiddqXdfRxcRa B54bgE3ARcB1fZ7UVFwHfIVmfuNKuWwiXqt1XUcXsc062v5+AEuBPwV+3sdJ7c69xJyWlp6INEVb 1tG9pSeyjZ9TYR29gzhW2Fx4LAPe3sGT3pk9gK/V4Pk56jHuAObTfW8nXsOln99yYk1P2TDwQeLK plKTfgp4P725a5EBcGw7ehWAYeI1/FTB57aCWMuV19EI8D7g/gKTvg84j1iovWAAHNuOXgUA4rV2 HvGa7vfzup9YwyPtTn4IOIW4aGCiDxOeIK6mOpne3mPNADi2Hb0MAMRr+WTitd2vdbSIWLtdWUcH Ap8HHiU+Suj2hCdbj/351n+r1wyAY9vR6wBs0eh1NAM4CbgAeKhLT2Cy9Vjntx57RrcnvRMGwLHt 6FcAYOs6Op/ur6MLqLiOpleY+Abgp8BNwFeBdwGvA44E5lV4rC23T7oHuBr4d+BneIWfctjZOnox MJepn/faRJzgu5et6+gOKq6jKgHYYhy4GbgNeAGwADgBOA44iHgS84DZrT//TGuiK4kvSiwmrkR6 kPgmYh2vmJJ6bRy4hVhHc4DD2LqODmbX6+gRtq6jJcDTtHmT3HYCsMVEazIriZrtAexJnHHcAxht /bkx4sluJO5C4tV80laTbF1HNxNrcia7Xkfr6dIecycB2N447sZLndpEH+930dSfBpPUBQZASswA SIkZACkxAyAlZgCkxAyAlJgBkBIzAFJiBkBKzABIiRkAKTEDICVmAKTEDICUmAGQEjMAUmIGQErM AEiJGQApsW7eFFT1sBG4BLiV7gV+EngF8B46+J051Y8BGDzjwHdbo5veAbwbAzBQPAQYPEP05odV e/W4KsgASIkZACkxAyAlZgCkxAyAlJgBkBIzAFJiBkBKzABIiRkAKTEDICVmAKTEDICUmAGQEjMA UmIGQErMAEiJGQApMQMgJWYApMQMgJSYAZASMwBSYgZASswASIkZACkxAyAlZgCkxAyAlJgBkBIz AFJiBkBKzABIiRkAKTEDICVmAKTEDICUmAGQEjMAUmIGQErMAEiJGQApMQMgJWYApMQMgJSYAZAS MwBSYgZASswASIkZACkxAyAlZgCkxAyAlJgBkBIzAFJiBkBKzABIiRkAKTEDICVmAKTEDICUmAGQ EjMAUmIGQErMAEiJGQApMQMgJWYApMQMgJSYAZASMwBSYgZASswASIkZACkxAyAlZgCkxAyAlJgB kBIzAFJiBkBKzABIiRkAKTEDICVmAKTEDICUmAGQEjMAUmIGQErMAEiJGQApMQMgJWYApMQMgJSY AZASMwBSYgZASswASIkZACkxAyAlZgCkxAyAlJgBkBIzAFJiBkBKzABIiRkAKTEDICVmAKTEDICU mAGQEjMAUmIGQErMAEiJGQApMQMgJWYApMQMgJSYAZASMwBSYgZASswASIkZACkxAyAlZgCkxAyA lJgBkBIzAFJiBkBKzABIiRkAKTEDICVmAKTEDICUmAGQEjMAUmIGQErMAEiJGQApMQMgJWYApMQM gJSYAZASMwBSYgZASswASIkZACkxAyAlZgCkxAyAlJgBkBIzAFJiBkBKzABIiRkAKTEDICVmAKTE DICUmAGQEjMAUmIGQErMAEiJGQApMQMgJWYApMQMgJSYAZASMwBSYgZASswASIkZACkxAyAlZgCk xAyAlJgBkBIzAFJiBkBKzABIiRkAKTEDICVmAKTEDICUmAGQEjMAUmIGQErMAEiJGQApMQMgJWYA pMQMgJSYAZASMwBSYgZASswASIkZACkxAyAlZgCkxAyAlJgBkBIzAFJiBkBKzABIiRkAKTEDICVm AKTEDICUmAGQEjMAUmIGQErMAEiJGQApMQMgJWYApMQMgJSYAZASMwBSYgZASswASIkZACkxAyAl ZgCkxAyAlJgBkBIzAFJiBkBKzABIiRkAKTEDICVmAKTEDICUmAGQEjMAUmIGQErMAEiJGQApMQMg JWYApMQMgJSYAZASMwBSYgZASswASIkZACkxAyAlZgCkxAyAlJgBkBIzAFJiBkBKzABIiRkAKTED ICVmAKTEDICUmAGQEjMAUmKZA7C59AR6ZDO9eW69etw6GOTntktZAzAJrC89iR6ZBDb04HHXtx57 EK1jcJ/bLmUNwASwtvQkemSCeEF32xiwqQePWwfPMLjPbZeyBgBgVekJ9Mg4vXluq1qPPYhWAhtL T6KEzAFYSm92lUtbBfyiB4/7JIMbzaXEHk46mQNwP4N5GPAQsUvbbWtbjz1oJonXQkqZA7AEeKT0 JHrgTmBNDx53TeuxB81q4PbSkyglcwCeAm4oPYku2wgspjdntCeBGxm8w6YHgLtLT6KUzAEYB37E YJ38eYIIQK/cCDzew8cv4RrizSClzAEAuBq4t/Qkuugn9PZ4dgmxYAbF08DlxEenKWUPwMPEC2AQ bAS+R2+uAdhiPXAZg3MR1Q3AT0tPQmUdS3wMtLnh48fAAV3eNjuyP7EXUPr5djrWAed1eduogaYB f0P5F2QnYwz4zW5vmF34bWKPo/Tz7mRcBezd7Q2jZjqK+Cio9Iuy3XE5MLfrW2Xn5gP/24Pn0a+x Aji761tFjXYecQFN6Rdn1bGaMi/mtxELqfTzrzomgS8AI93fJGqyUeBC4oxw6RdplRfzRa2599sM 4HPEl2hKb4cq4wfAgh5sDw2A+cC/Egur9At1KuMK4OCebImp2Re4dAfzquu4mTjpK+3UAuIEUekX 6+7GrcAre7QNqjicuJ6i9PbY3bgP+JUebQMNmKOB6yn/ot3ZeAQ4s2fPvrqTgJ9RfrvsbCwH3tmz Z6+BdCLwQ+p3OPAA8GvU7yKu04ld7NLbZ/txD/Cr1G97qQEOAb5MfBW29At5M3AtcCow1Msn3YGj iSsF63BicII4lDuxp89YA2828HvAMsq9mDcC3wKO7PFz7Yb9gQsoG81nWnM4sMfPVUlMI3ZxL6f/ L+xlwCeBfXr+LLtnNvARYve7n4dQW74O/QFgVs+fpdJ5IXH8fRVx+W0vX8yriHf91wDT+/HkumwI eCnwJeBRehuCceJTkY8RH4vW9RBJA2IecC5xOexquvfingAeA75JnOWf3a8n1EMzgJOJXfIH6O53 CNYBtwGfAA7DhV+ZG6wz84DjgDcCrwUWEnsJVS4zXUdcUnsX8D/E3sWd9PZrvSXsQWyf1xPb6xhg P2JXfaqvw03ErcmWEfc+WER8M3E5Se/r3ykD0B3TiRi8iDjr/MvEBUWHEF/SmUW8E64nTlCtAB4k 3hFvI76XvoTYm9jc36kXMZs4QXdsaxxOvIPPJ7bVLLb+dsPTxHUPS4ibt9wI3EHc/WiQ7uZUxP8D 0qyxWY8IWZgAAAAASUVORK5CYII= "
       style="image-rendering:optimizeSpeed"
       preserveAspectRatio="none"
       height="330.12173"
       width="118.03235"
       inkscape:export-xdpi="109.05068"
       inkscape:export-ydpi="109.05068" />
    <image
       width="118.03235"
       height="330.12173"
       preserveAspectRatio="none"
       style="image-rendering:optimizeSpeed"
       xlink:href="data:image/png;base64,iVBORw0KGgoAAAANSUhEUgAAAQAAAALMCAYAAAALsGw0AAAABHNCSVQICAgIfAhkiAAAGrxJREFU eJzt3XmwnWV9wPHvvQk35CYYE5ZAWRMEpSrKDi5oEUVEUdSZVltKXUY7dmpb21o705nWdrRqbauA U3Q62mIVau1oW6QgqRUroEDYZRMIARIWIQshN8vNvekfvxMSQpb7nu153/P7fmaecQbD4TlvzvM9 7/ue97xnCA2aGcA84ABgIXB4638XtP75bGDWNgNg7TbjGWAFsAR4YJuxvPXPN/TpeagPhkpPQB2b DryQWOjHAccDxwD7A6OtMb3Nx94EjLXGY8AtwI3AYuA+YFXrz6ihDEAzDQF7AycCZwCnEO/yc2h/ sU/VJmA1sYdwHXAlcD3wFDDZ4/+2uswANMso8HLgzcTCfxmwV9EZwRrgTuAKIga3EYcSkrpkFrHo LwGeIN5pN9dsTAK/AL4FnEX5MEmNtxfwVuDbwErKL/KpjtXAd4FziMMSSRXsAZxKLPzVlF/Q7Y41 wH8CpwMjXd1C0oA6DPg08bFb6QXcrfEE8HfAEXjeSdqhUeC9wA3ABOUXbbfHJHGC8IN4fkB6jgOB LwJPU36h9nqsBf6R+NhSSm0IOBm4isF819/V3sC1wBuA4Y63otRAI8B5xBV1pRdkqfEI8FG2XpIs pTAKfJxmfbTXq/EM8BnicmZp4M0BPkW88EsvvrqMDcBFwH4dbFep9vYBLgTWU37R1W1sAi4FDml7 60o1Nhf4MjBO+cVW1zEJfIf4VEQaGLOAzxK7uqUXWd3HJHAxsbckNd4I8Ani8+/Si6spYxw4H3hB G9tbqo1h4EN4tr+dsR74JHGHI6mRTgMepvxiaupYBZxbeatLNbAA+DHlF1HTxz3ACRW3vVTULOKM fx1v3NHEcTlxj0N12bTSExhAQ8AHgD/C78B3y0IiplfjfQdVcy8H7qb8u+agjV8Qt0WTamtPYte/ 9GIZ1HElsO+U/zakPjsbP/Lr5dgI/D7eVUg1NB/4AeUXyaCPu4nDLHWBN2PonncCryk9iQReDLyf 3v8ASgoGoDvmA79B3M1XvXcO8aMo6pAB6I63EL/Lp/44lLiBqh9jd8gAdG5v4nJVr1nvr3cBR5We RNMZgM6dRtzYU/21EHg3fiLQEQPQmRnER38zS08kqbPwNmIdMQCdWQi8tvQkEjuK+Gl0tckAdOY0 4KDSk0hsFnEC1k9f2mQA2jcbOBPPRJf2eryRaNsMQPuOwI/+6uBQ4FWlJ9FUBqB9x+KNK+tgBDgR X8ttcaO1ZxpwPF6OWhfHEbddV0UGoD1ziT0A1cOLiFuwqSID0J6F+PPWdTIXz8e0xQC052XEb/yp HqYTfye+nityg7XnUPzsuW4OI351WRUYgOr2wM+d6+gQDEBlBqC6WcQegOplP+KbmarAAFQ3Czi4 9CT0PKO4Z1aZAahub/zRyjqaCRxQehJNYwCqm40XANXRdOLvRhUYgOpG8QtAdTSEJwErMwDVjeIe QF0ZgIoMQHWzcA+grgxARQaguhkYgLraE+8RWIkBqG4cf6G2rjYSvx6kKTIA1a0FNpWehHZorPQE msYAVDcGTJSehHbIAFRkAKozAPW0GQNQmQGozkOAepog/m5UgQGobgW+0OpoPfBE6Uk0jQGobg2w rPQk9DxjwNLSk2gaA1DdWnyh1dEK3AOozABUtwF4qPQk9DwP4UnAygxAe5biJwF1sxQDUJkBaM9d xLkA1cNm4E78dKYyA9Cee/AwoE5WAYtLT6KJDEB7VgA3l56EnrUUuLf0JJrIALRnI3AjfimoLhYT UVZFBqB9i4GVpSchJoAbiG9pqiID0L67gdtLT0IsB64pPYmmMgDtWwlcgd8/L+3HwH2lJ9FUBqAz VwGPl55EYhuA7xHfA1AbDEBn7gauKz2JxO4H/q/0JJrMAHRmDLiM+FRA/XclfjGrIwagc1cAt5ae REKPAt/CS7I7YgA6txz4Bl6G2m//BdxUehJNZwC647vAHaUnkcjjwMV46NUxA9AdS4FLcHe0X75H XIkp1cZhxBVpmx09HQ8BJ0/tr0S74y/cdM8qYB1wBjBSeC6DagL4AnApXoClGppNHAqUfpcc1HEN cNCU/zakAk4izgmUXiyDNlYD767w96Ap8BCg+x4D9gBOxe3bLZuBrwEX4setaoC5eCjQzfEj4iSr 1BhHEReqlF48TR9LgddX2/RSPZxNXLRSehE1dawFPgIMVd3wmhqPUXvrfuKjq1fjR4NVbQL+Afh7 vOJPDTYKfIr4znrpd9SmjAnipN/ebWxvqXbmAF8i3tVKL666j0ng28ABbW1pqab2Bb5OvLuVXmR1 HlcAC9rcxlKt7Q98lTimLb3Q6jYmgf8AXtT21pUaYB5xYmuM8ouuLmOc+HrvgR1sV6kx9gL+HHia 8ouv9BgDvogn/JTMTODDwIOUX4SlxmPAx4kgSukMEd8Z+CG5Tg5OAtcDZwLTO92IUtMdQnxMuIby i7PXYwz4J+CIbmw4aVDMAs4lfnNwEPcGJomfUvsQ8IIubTNp4CwA/pq423DpRdut8QTxyceReF2/ tFtb7ifwbeJGGKUXcLtjDXH77jcCM7q6haQEZgNvBf4NWEH5BT3VsQr4DnAOcRm0pA7MAt4E/Avx 0VkdzxFMEF99vpQ4u+9Hew3g8VizzAReSsTgzcDRxAm1Un+Pm4mLmW4nfqfv+8QPpIwVmo8qMgDN NETcduw4IganEB+rzSXOH/TSOLASuI/4ZeTvE59cbDlEUYMYgOabRhxnHwocS0ThGOBg4tBhlPZv RrKR+K2DtcDDwM3EYr+JuIJxNf4aUqMZgMEznTgsmEdE4JDWOIjYQxjdbkDssm87VgKPEL/C8xCx +FcSC9678g4QA5DHdOLwYFprTGfrLeEmiIU90RrjuNAlSZIkSZIkSZIkSZIkSZIkSZIkSZIkSZIk SZIkSZIkSZIkSZIkSZIkaarq/NuAw8CexA9YzgF+ifhxy5mtfzazNaaXmqBE/IbiutYYa/3vSmA5 8WOqY8B6YLLUBHelTgEYAV4IHA68EngJ8au2BwPziZ+6HmHrj1tOIyIhlTbJ1h9WnSB+Vn0t8Djx y8oPAXcDtwD3A6taf6a40gEYJRb8qcDxxMI/hPh5a9/ZNUg2AU8TMbgFuBH4ERGEsVKTKhGAEeAw 4HXAGcDJxDu8C16ZbCL2EH4CXAlcDTxIn/cM+hmAmcBxwHuAM4GDiN+rl7IbBx4B/hu4BFhMnEvo uX4EYDbxbv/rwOnAPn3670pNsxl4ElgEfIPYK3iml//BXi7EEWL3/neBNxHH9ZKm5mng+8AFxGFC Tw4NehGAIeBI4EPAe4H9e/DfkLJ4DPgm8BXgXmIvoWumdfPBiI/qzgW+ALwN2KvLjy9lM5vYk34D cT3BvcQ5g67oZgAOB/4S+GPgQDzOl7plCNgXOI24IO4u4mKjjnUjANOAtxDHKm8DZnThMSU93whw LPAq4krDB+jwkKDTAOxJHOv/LXHc77u+1FtDxB72G4gLiG4nriloSycBmAP8CfBnwLwOHkdSdbOB 1xLX0twEbGjnQdoNwH7Ap4HfIS7nldR/M4gThPsC1xPfP6iknQDsA3wOeB9eySeVNh04hnhTvoaK 3yuoGoC5wKeA38Jr96W6GAZeRnyb9lri48IpqRKAvYC/AD6M7/xS3QwDryAOya9lilcOTjUA04E/ BD6GH/NJdTWN+Er9BuA6pnATkqkG4F3AX+H1/FLdTQeOJq4RuHN3f3gqATgOOB84tLN5SeqTUeKc wE+AR3f1B3cXgPnAF4FTujMvSX2yL3E7vUXs4uPBXQVgGPgo8AG8957URAuIG5New04uGd5VAE4C PkN89CepeYaBI4gTgo/s6A/sLABzgM/irr/UdHOIN/Er2cHlwjvbtT8HOKuHk5LUP2cRa/p5dhSA /YD3E9/0k9R8exJrer/t/48dBeBs4vhf0uA4iVjbz7F9AOYT1/mP9GFCkvpnhFjb87f9h9sH4Azi F3okDZ7jiTX+rG0DMAq8Ha/1lwbVDGKNP3sPj20D8FLg1f2ekaS+ejWx1oHnBuDNbHd8IGngzCfW OrA1APPY7thA0sA6g9Z9PLcE4EjgJcWmI6mfXkKs+WcDcAJe8y9lMZdY8wwTVwmdgN/4k7IYJtb8 nsPE5YHHlp2PpD47FthvGFiIZ/+lbOYDC4eJH/X0xz2kXEaBww2AlNNzAiApn8OHiRsHSsrn4GHi lkGS8pkzTPzMsKR8ZhsAKa/ZQ8SdQr0DkJTPxiF28oMBkgaf1/9LiRkAKTEDICVmAKTEDICUmAGQ EjMAUmIGQErMAEiJGQApMQMgJWYApMQMgJSYAZASMwBSYgZASswASIkZACkxAyAlZgCkxAyAlJgB kBIzAFJiBkBKzABIiRkAKTEDICVmAKTEDICUmAGQEjMAUmIGQErMAEiJGQApMQMgJWYApMQMgJSY AZASMwBSYgZASswASIkZACmx6aUn0KYxYBGwrs1/fxg4HljQtRmpyVYDPwTWt/nvzwROB0a7NaF+ aWoAngL+AFgGDLXx748AF2IAFJYBHwUep/rraTNwIBEQA9Ank8CG1mjHRGtIEIu4k9fTBuI12Tie A5ASMwBSYgZASswASIkZACkxAyAlZgCkxAyAlJgBkBIzAFJiBkBKzABIiRkAKTEDICVmAKTEDICU mAGQEjMAUmIGQErMAEiJGQApMQMgJWYApMQMgJSYAZASMwBSYgZASswASIkZACkxAyAlZgCkxAyA lJgBkBIzAFJiBkBKzABIiRkAKTEDICVmAKTEDICUmAGQEjMAUmIGQErMAEiJGQApMQMgJWYApMQM gJSYAZASMwBSYgZASswASIkZACkxAyAlZgCkxAyAlJgBkBIzAFJiBkBKzABIiRkAKTEDICVmAKTE DICUmAGQEjMAUmIGQErMAEiJGQApMQMgJWYApMQMgJSYAZASMwBSYgZASswASIkZACkxAyAlZgCk xAyAlJgBkBIzAFJiBkBKzABIiRkAKTEDICVmAKTEDICUmAGQEjMAUmIGQErMAEiJGQApMQMgJWYA pMQMgJSYAZASMwBSYgZASswASIkZACkxAyAlZgCkxAyAlJgBkBIzAFJiBkBKzABIiRkAKTEDICVm AKTEDICUmAGQEjMAUmIGQErMAEiJGQApMQMgJWYApMQMgJSYAZASMwBSYgZASswASIkZACkxAyAl ZgCkxAyAlJgBkBIzAFJiBkBKzABIiRkAKTEDICVmAKTEDICUmAGQEjMAUmIGQErMAEiJGQApMQMg JWYApMQMgJSYAZASMwBSYgZASswASIkZACkxAyAlZgCkxAyAlJgBkBIzAFJiBkBKzABIiRkAKTED ICVmAKTEDICUmAGQEmtqAIZKT0DaTiNfk8PAROlJtGETsLn0JKSWzcRrsmkmhoF1pWfRhvU0M1wa TBPEa7Jp1g0DY6Vn0YZ1GADVxwTNfCMdGwaeLD2LNqwExktPQmoZJ16TTfPkMPBg6Vm04WGaueei wTRGvCab5sFhYEnpWbThYdwDUH2M08wALBkGbqVZxy/rgDtLT0Lazp00bx3dOgxcDzxVeDJVrCCi JdXJrcRrsymeAq7fcg7g9rJzqeRWYFnpSUjbWUaz3phup3UOYDWwCJgsO58pmQSuAtaUnoi0nTXE a7Mp62gRsHrLpcCLaMa76sPEXKU6WkQzTgYuo7WOtgTgLuCyYtOZusuAe0pPQtqJe2jOOroLtgZg HPg6sLzUjKZgGTFHP/5TXW1ZR3Xem17ONuto228D3gBcTD2PYSaBfwYWl56ItBuLiddqXdfRxcRa B54bgE3ARcB1fZ7UVFwHfIVmfuNKuWwiXqt1XUcXsc062v5+AEuBPwV+3sdJ7c69xJyWlp6INEVb 1tG9pSeyjZ9TYR29gzhW2Fx4LAPe3sGT3pk9gK/V4Pk56jHuAObTfW8nXsOln99yYk1P2TDwQeLK plKTfgp4P725a5EBcGw7ehWAYeI1/FTB57aCWMuV19EI8D7g/gKTvg84j1iovWAAHNuOXgUA4rV2 HvGa7vfzup9YwyPtTn4IOIW4aGCiDxOeIK6mOpne3mPNADi2Hb0MAMRr+WTitd2vdbSIWLtdWUcH Ap8HHiU+Suj2hCdbj/351n+r1wyAY9vR6wBs0eh1NAM4CbgAeKhLT2Cy9Vjntx57RrcnvRMGwLHt 6FcAYOs6Op/ur6MLqLiOpleY+Abgp8BNwFeBdwGvA44E5lV4rC23T7oHuBr4d+BneIWfctjZOnox MJepn/faRJzgu5et6+gOKq6jKgHYYhy4GbgNeAGwADgBOA44iHgS84DZrT//TGuiK4kvSiwmrkR6 kPgmYh2vmJJ6bRy4hVhHc4DD2LqODmbX6+gRtq6jJcDTtHmT3HYCsMVEazIriZrtAexJnHHcAxht /bkx4sluJO5C4tV80laTbF1HNxNrcia7Xkfr6dIecycB2N447sZLndpEH+930dSfBpPUBQZASswA SIkZACkxAyAlZgCkxAyAlJgBkBIzAFJiBkBKzABIiRkAKTEDICVmAKTEDICUmAGQEjMAUmIGQErM AEiJGQApsW7eFFT1sBG4BLiV7gV+EngF8B46+J051Y8BGDzjwHdbo5veAbwbAzBQPAQYPEP05odV e/W4KsgASIkZACkxAyAlZgCkxAyAlJgBkBIzAFJiBkBKzABIiRkAKTEDICVmAKTEDICUmAGQEjMA UmIGQErMAEiJGQApMQMgJWYApMQMgJSYAZASMwBSYgZASswASIkZACkxAyAlZgCkxAyAlJgBkBIz AFJiBkBKzABIiRkAKTEDICVmAKTEDICUmAGQEjMAUmIGQErMAEiJGQApMQMgJWYApMQMgJSYAZAS MwBSYgZASswASIkZACkxAyAlZgCkxAyAlJgBkBIzAFJiBkBKzABIiRkAKTEDICVmAKTEDICUmAGQ EjMAUmIGQErMAEiJGQApMQMgJWYApMQMgJSYAZASMwBSYgZASswASIkZACkxAyAlZgCkxAyAlJgB kBIzAFJiBkBKzABIiRkAKTEDICVmAKTEDICUmAGQEjMAUmIGQErMAEiJGQApMQMgJWYApMQMgJSY AZASMwBSYgZASswASIkZACkxAyAlZgCkxAyAlJgBkBIzAFJiBkBKzABIiRkAKTEDICVmAKTEDICU mAGQEjMAUmIGQErMAEiJGQApMQMgJWYApMQMgJSYAZASMwBSYgZASswASIkZACkxAyAlZgCkxAyA lJgBkBIzAFJiBkBKzABIiRkAKTEDICVmAKTEDICUmAGQEjMAUmIGQErMAEiJGQApMQMgJWYApMQM gJSYAZASMwBSYgZASswASIkZACkxAyAlZgCkxAyAlJgBkBIzAFJiBkBKzABIiRkAKTEDICVmAKTE DICUmAGQEjMAUmIGQErMAEiJGQApMQMgJWYApMQMgJSYAZASMwBSYgZASswASIkZACkxAyAlZgCk xAyAlJgBkBIzAFJiBkBKzABIiRkAKTEDICVmAKTEDICUmAGQEjMAUmIGQErMAEiJGQApMQMgJWYA pMQMgJSYAZASMwBSYgZASswASIkZACkxAyAlZgCkxAyAlJgBkBIzAFJiBkBKzABIiRkAKTEDICVm AKTEDICUmAGQEjMAUmIGQErMAEiJGQApMQMgJWYApMQMgJSYAZASMwBSYgZASswASIkZACkxAyAl ZgCkxAyAlJgBkBIzAFJiBkBKzABIiRkAKTEDICVmAKTEDICUmAGQEjMAUmIGQErMAEiJGQApMQMg JWYApMQMgJSYAZASMwBSYgZASswASIkZACkxAyAlZgCkxAyAlJgBkBIzAFJiBkBKzABIiRkAKTED ICVmAKTEDICUmAGQEjMAUmKZA7C59AR6ZDO9eW69etw6GOTntktZAzAJrC89iR6ZBDb04HHXtx57 EK1jcJ/bLmUNwASwtvQkemSCeEF32xiwqQePWwfPMLjPbZeyBgBgVekJ9Mg4vXluq1qPPYhWAhtL T6KEzAFYSm92lUtbBfyiB4/7JIMbzaXEHk46mQNwP4N5GPAQsUvbbWtbjz1oJonXQkqZA7AEeKT0 JHrgTmBNDx53TeuxB81q4PbSkyglcwCeAm4oPYku2wgspjdntCeBGxm8w6YHgLtLT6KUzAEYB37E YJ38eYIIQK/cCDzew8cv4RrizSClzAEAuBq4t/Qkuugn9PZ4dgmxYAbF08DlxEenKWUPwMPEC2AQ bAS+R2+uAdhiPXAZg3MR1Q3AT0tPQmUdS3wMtLnh48fAAV3eNjuyP7EXUPr5djrWAed1eduogaYB f0P5F2QnYwz4zW5vmF34bWKPo/Tz7mRcBezd7Q2jZjqK+Cio9Iuy3XE5MLfrW2Xn5gP/24Pn0a+x Aji761tFjXYecQFN6Rdn1bGaMi/mtxELqfTzrzomgS8AI93fJGqyUeBC4oxw6RdplRfzRa2599sM 4HPEl2hKb4cq4wfAgh5sDw2A+cC/Egur9At1KuMK4OCebImp2Re4dAfzquu4mTjpK+3UAuIEUekX 6+7GrcAre7QNqjicuJ6i9PbY3bgP+JUebQMNmKOB6yn/ot3ZeAQ4s2fPvrqTgJ9RfrvsbCwH3tmz Z6+BdCLwQ+p3OPAA8GvU7yKu04ld7NLbZ/txD/Cr1G97qQEOAb5MfBW29At5M3AtcCow1Msn3YGj iSsF63BicII4lDuxp89YA2828HvAMsq9mDcC3wKO7PFz7Yb9gQsoG81nWnM4sMfPVUlMI3ZxL6f/ L+xlwCeBfXr+LLtnNvARYve7n4dQW74O/QFgVs+fpdJ5IXH8fRVx+W0vX8yriHf91wDT+/HkumwI eCnwJeBRehuCceJTkY8RH4vW9RBJA2IecC5xOexquvfingAeA75JnOWf3a8n1EMzgJOJXfIH6O53 CNYBtwGfAA7DhV+ZG6wz84DjgDcCrwUWEnsJVS4zXUdcUnsX8D/E3sWd9PZrvSXsQWyf1xPb6xhg P2JXfaqvw03ErcmWEfc+WER8M3E5Se/r3ykD0B3TiRi8iDjr/MvEBUWHEF/SmUW8E64nTlCtAB4k 3hFvI76XvoTYm9jc36kXMZs4QXdsaxxOvIPPJ7bVLLb+dsPTxHUPS4ibt9wI3EHc/WiQ7uZUxP8D 0qyxWY8IWZgAAAAASUVORK5CYII= "
       id="image4791"
       x="1042.9047"
       y="444.85452"
       inkscape:export-xdpi="109.05068"
       inkscape:export-ydpi="109.05068" />
  </g>
</svg>
